ACCOUNT_NAME_FORMULA__C,ACCOUNTID,FINAL_DESTINATION__C,LOADING_SITE__C,PRODUCTION_SITE__C,SALES_PLACE__C ,SITE__C
PT BUMI MAESTROAYU,715845,"IDJKT JAKARTA, JAVA",LAGOCS Teys Aust - Distribution,LAGSTO Teys at Lago Storage Age,"IDJKT JAKARTA, JAVA",HEADOF Teys Australia Pty Ltd
PT BUMI MAESTROAYU,715846,"IDJKT JAKARTA, JAVA",BEENLH Teys Aust - Beenleigh,BEENLH Teys Aust - Beenleigh,"IDJKT JAKARTA, JAVA",HEADOF Teys Australia Pty Ltd
PT BUMI MAESTROAYU,715847,"IDJKT JAKARTA, JAVA",NARACT Teys Aust - Naracoorte,NARACT Teys Aust - Naracoorte,"IDJKT JAKARTA, JAVA",HEADOF Teys Australia Pty Ltd
PT BUMI MAESTROAYU,715848,"IDJKT JAKARTA, JAVA",BILOEL Teys Aust - Biloela,BILOEL Teys Aust - Biloela,"IDJKT JAKARTA, JAVA",HEADOF Teys Australia Pty Ltd
PT BUMI MAESTROAYU,715849,"IDJKT JAKARTA, JAVA",INNISF Teys Australia Pty Ltd,INNISF Teys Australia Pty Ltd,"IDJKT JAKARTA, JAVA",HEADOF Teys Australia Pty Ltd
TMC CO LTD,600524,JPYOK YOKOHAMA,WAGGAW Teys Aust - Wagga,WAGGAW Teys Aust - Wagga,JPYOK YOKOHAMA,HEADOF Teys Australia Pty Ltd
TMC CO LTD,600525,"JPKIX KANSAI INT APT, OSAKA",BEENLH Teys Aust - Beenleigh,BEENLH Teys Aust - Beenleigh,"JPKIX KANSAI INT APT, OSAKA",HEADOF Teys Australia Pty Ltd
TMC CO LTD,600526,JPYOK YOKOHAMA,ROCKON Teys Aust - Rockhampton,ROCKON Teys Aust - Rockhampton,JPYOK YOKOHAMA,HEADOF Teys Australia Pty Ltd
TMC CO LTD,600527,"JPKIX KANSAI INT APT, OSAKA",BILOEL Teys Aust - Biloela,BILOEL Teys Aust - Biloela,"JPKIX KANSAI INT APT, OSAKA",HEADOF Teys Australia Pty Ltd
TMC CO LTD,600528,JPYOK YOKOHAMA,NARACT Teys Aust - Naracoorte,NARACT Teys Aust - Naracoorte,JPYOK YOKOHAMA,HEADOF Teys Australia Pty Ltd
TMC CO LTD,600529,"JPKIX KANSAI INT APT, OSAKA",TAMWTH Teys Aust - Tamworth,TAMWTH Teys Aust - Tamworth,"JPKIX KANSAI INT APT, OSAKA",HEADOF Teys Australia Pty Ltd
TMC CO LTD,600530,JPYOK YOKOHAMA,LAGOCS Teys Aust - Distribution,LAGSTO Teys at Lago Storage Age,JPYOK YOKOHAMA,HEADOF Teys Australia Pty Ltd
MARUBENI AUSTRALIA,602074,JPYOK YOKOHAMA,WAGGAW Teys Aust - Wagga,WAGGAW Teys Aust - Wagga,JPYOK YOKOHAMA,HEADOF Teys Australia Pty Ltd
MARUBENI AUSTRALIA,602075,"JPKIX KANSAI INT APT, OSAKA",BEENLH Teys Aust - Beenleigh,BEENLH Teys Aust - Beenleigh,"JPKIX KANSAI INT APT, OSAKA",HEADOF Teys Australia Pty Ltd
MARUBENI AUSTRALIA,602076,JPYOK YOKOHAMA,ROCKON Teys Aust - Rockhampton,ROCKON Teys Aust - Rockhampton,JPYOK YOKOHAMA,HEADOF Teys Australia Pty Ltd
MARUBENI AUSTRALIA,602077,"JPKIX KANSAI INT APT, OSAKA",BILOEL Teys Aust - Biloela,BILOEL Teys Aust - Biloela,"JPKIX KANSAI INT APT, OSAKA",HEADOF Teys Australia Pty Ltd
MARUBENI AUSTRALIA,602078,JPYOK YOKOHAMA,NARACT Teys Aust - Naracoorte,NARACT Teys Aust - Naracoorte,JPYOK YOKOHAMA,HEADOF Teys Australia Pty Ltd
MARUBENI AUSTRALIA,602079,"JPKIX KANSAI INT APT, OSAKA",TAMWTH Teys Aust - Tamworth,TAMWTH Teys Aust - Tamworth,"JPKIX KANSAI INT APT, OSAKA",HEADOF Teys Australia Pty Ltd
MARUBENI AUSTRALIA,602080,JPYOK YOKOHAMA,LAGOCS Teys Aust - Distribution,LAGSTO Teys at Lago Storage Age,JPYOK YOKOHAMA,HEADOF Teys Australia Pty Ltd
ITOHAM FOODS INC,601356,JPYOK YOKOHAMA,WAGGAW Teys Aust - Wagga,WAGGAW Teys Aust - Wagga,JPYOK YOKOHAMA,HEADOF Teys Australia Pty Ltd
ITOHAM FOODS INC,601357,JPYOK YOKOHAMA,TAMWTH Teys Aust - Tamworth,TAMWTH Teys Aust - Tamworth,JPYOK YOKOHAMA,HEADOF Teys Australia Pty Ltd
ITOHAM FOODS INC,601358,JPYOK YOKOHAMA,LAGOCS Teys Aust - Distribution,LAGSTO Teys at Lago Storage Age,JPYOK YOKOHAMA,HEADOF Teys Australia Pty Ltd
ITOHAM FOODS INC,601359,JPYOK YOKOHAMA,ROCKON Teys Aust - Rockhampton,ROCKON Teys Aust - Rockhampton,JPYOK YOKOHAMA,HEADOF Teys Australia Pty Ltd
ITOHAM FOODS INC,601360,JPYOK YOKOHAMA,BEENLH Teys Aust - Beenleigh,BEENLH Teys Aust - Beenleigh,JPYOK YOKOHAMA,HEADOF Teys Australia Pty Ltd
ITOHAM FOODS INC,601361,JPYOK YOKOHAMA,BILOEL Teys Aust - Biloela,BILOEL Teys Aust - Biloela,JPYOK YOKOHAMA,HEADOF Teys Australia Pty Ltd
ITOHAM FOODS INC,601362,JPYOK YOKOHAMA,NARACT Teys Aust - Naracoorte,NARACT Teys Aust - Naracoorte,JPYOK YOKOHAMA,HEADOF Teys Australia Pty Ltd
ITOHAM FOODS INC,601363,JPYOK YOKOHAMA,INNISF Teys Australia Pty Ltd,INNISF Teys Australia Pty Ltd,JPYOK YOKOHAMA,HEADOF Teys Australia Pty Ltd
"HUADONG FOOD SUZHOU CO.,LTD",713251,CNZJG ZHANGJIAGANG,BEENLH Teys Aust - Beenleigh,BEENLH Teys Aust - Beenleigh,CNZJG ZHANGJIAGANG,HEADOF Teys Australia Pty Ltd
"HUADONG FOOD SUZHOU CO.,LTD",713252,CNZJG ZHANGJIAGANG,NARACT Teys Aust - Naracoorte,NARACT Teys Aust - Naracoorte,CNZJG ZHANGJIAGANG,HEADOF Teys Australia Pty Ltd
"HUADONG FOOD SUZHOU CO.,LTD",713253,CNZJG ZHANGJIAGANG,ROCKON Teys Aust - Rockhampton,ROCKON Teys Aust - Rockhampton,CNZJG ZHANGJIAGANG,HEADOF Teys Australia Pty Ltd
"HUADONG FOOD SUZHOU CO.,LTD",713254,CNZJG ZHANGJIAGANG,BILOEL Teys Aust - Biloela,BILOEL Teys Aust - Biloela,CNZJG ZHANGJIAGANG,HEADOF Teys Australia Pty Ltd
"HUADONG FOOD SUZHOU CO.,LTD",713255,CNZJG ZHANGJIAGANG,TAMWTH Teys Aust - Tamworth,TAMWTH Teys Aust - Tamworth,CNZJG ZHANGJIAGANG,HEADOF Teys Australia Pty Ltd
"HUADONG FOOD SUZHOU CO.,LTD",713256,CNZJG ZHANGJIAGANG,WAGGAW Teys Aust - Wagga,WAGGAW Teys Aust - Wagga,CNZJG ZHANGJIAGANG,HEADOF Teys Australia Pty Ltd
"HUADONG FOOD SUZHOU CO.,LTD",713257,CNZJG ZHANGJIAGANG,INNISF Teys Australia Pty Ltd,INNISF Teys Australia Pty Ltd,CNZJG ZHANGJIAGANG,HEADOF Teys Australia Pty Ltd
AJC INTERNATIONAL (GLOBAL) GMBH,720562,AOLAD LUANDA,LAGOCS Teys Aust - Distribution,LAGSTO Teys at Lago Storage Age,AOLAD LUANDA,HEADOF Teys Australia Pty Ltd
AJC INTERNATIONAL (GLOBAL) GMBH,720563,HKHKG HONG KONG,BEENLH Teys Aust - Beenleigh,BEENLH Teys Aust - Beenleigh,HKHKG HONG KONG,HEADOF Teys Australia Pty Ltd
AJC INTERNATIONAL (GLOBAL) GMBH,720564,ZADUR DURBAN,ROCKON Teys Aust - Rockhampton,ROCKON Teys Aust - Rockhampton,ZADUR DURBAN,HEADOF Teys Australia Pty Ltd
AJC INTERNATIONAL (GLOBAL) GMBH,720565,MZMAP MAPUTO,BILOEL Teys Aust - Biloela,BILOEL Teys Aust - Biloela,MZMAP MAPUTO,HEADOF Teys Australia Pty Ltd
AJC INTERNATIONAL (GLOBAL) GMBH,720566,SNDKR DAKAR,WAGGAW Teys Aust - Wagga,WAGGAW Teys Aust - Wagga,SNDKR DAKAR,HEADOF Teys Australia Pty Ltd
AJC INTERNATIONAL (GLOBAL) GMBH,720567,BRNVT NAVEGANTES,TAMWTH Teys Aust - Tamworth,TAMWTH Teys Aust - Tamworth,BRNVT NAVEGANTES,HEADOF Teys Australia Pty Ltd
AJC INTERNATIONAL (GLOBAL) GMBH,720568,BRITJ ITAJAI,INNISF Teys Australia Pty Ltd,INNISF Teys Australia Pty Ltd,BRITJ ITAJAI,HEADOF Teys Australia Pty Ltd
AJC INTERNATIONAL (GLOBAL) GMBH,720569,AOLAD LUANDA,NARACT Teys Aust - Naracoorte,NARACT Teys Aust - Naracoorte,AOLAD LUANDA,HEADOF Teys Australia Pty Ltd
JAPAN FOOD CORPORATION,600349,JPYOK YOKOHAMA,LAGOCS Teys Aust - Distribution,LAGSTO Teys at Lago Storage Age,JPYOK YOKOHAMA,HEADOF Teys Australia Pty Ltd
JAPAN FOOD CORPORATION,600350,JPYOK YOKOHAMA,WAGGAW Teys Aust - Wagga,WAGGAW Teys Aust - Wagga,JPYOK YOKOHAMA,WAGG Teys Aust - Wagga Wagga P
JAPAN FOOD CORPORATION,600351,JPYOK YOKOHAMA,BEENLH Teys Aust - Beenleigh,BEENLH Teys Aust - Beenleigh,JPYOK YOKOHAMA,HEADOF Teys Australia Pty Ltd
JAPAN FOOD CORPORATION,600352,JPYOK YOKOHAMA,ROCKON Teys Aust - Rockhampton,ROCKON Teys Aust - Rockhampton,JPYOK YOKOHAMA,HEADOF Teys Australia Pty Ltd
JAPAN FOOD CORPORATION,600353,JPYOK YOKOHAMA,NARACT Teys Aust - Naracoorte,NARACT Teys Aust - Naracoorte,JPYOK YOKOHAMA,HEADOF Teys Australia Pty Ltd
JAPAN FOOD CORPORATION,600354,JPYOK YOKOHAMA,TAMWTH Teys Aust - Tamworth,TAMWTH Teys Aust - Tamworth,JPYOK YOKOHAMA,HEADOF Teys Australia Pty Ltd
JAPAN FOOD CORPORATION,600355,JPYOK YOKOHAMA,BILOEL Teys Aust - Biloela,BILOEL Teys Aust - Biloela,JPYOK YOKOHAMA,HEADOF Teys Australia Pty Ltd
JAPAN FOOD CORPORATION,600356,JPYOK YOKOHAMA,INNISF Teys Australia Pty Ltd,INNISF Teys Australia Pty Ltd,JPYOK YOKOHAMA,HEADOF Teys Australia Pty Ltd
JAPAN FOOD CORPORATION,600357,JPYOK YOKOHAMA,WAGGAW Teys Aust - Wagga,WAGGAW Teys Aust - Wagga,JPYOK YOKOHAMA,HEADOF Teys Australia Pty Ltd
JIANGSU GUOTAI INTERNATIONAL GROUP,719632,CNZJG ZHANGJIAGANG,BEENLH Teys Aust - Beenleigh,BEENLH Teys Aust - Beenleigh,CNZJG ZHANGJIAGANG,HEADOF Teys Australia Pty Ltd
JIANGSU GUOTAI INTERNATIONAL GROUP,719633,CNZJG ZHANGJIAGANG,ROCKON Teys Aust - Rockhampton,ROCKON Teys Aust - Rockhampton,CNZJG ZHANGJIAGANG,HEADOF Teys Australia Pty Ltd
JIANGSU GUOTAI INTERNATIONAL GROUP,719634,CNZJG ZHANGJIAGANG,BILOEL Teys Aust - Biloela,BILOEL Teys Aust - Biloela,CNZJG ZHANGJIAGANG,HEADOF Teys Australia Pty Ltd
JIANGSU GUOTAI INTERNATIONAL GROUP,719635,CNZJG ZHANGJIAGANG,WAGGAW Teys Aust - Wagga,WAGGAW Teys Aust - Wagga,CNZJG ZHANGJIAGANG,HEADOF Teys Australia Pty Ltd
JIANGSU GUOTAI INTERNATIONAL GROUP,719636,CNZJG ZHANGJIAGANG,NARACT Teys Aust - Naracoorte,NARACT Teys Aust - Naracoorte,CNZJG ZHANGJIAGANG,HEADOF Teys Australia Pty Ltd
JIANGSU GUOTAI INTERNATIONAL GROUP,719637,CNZJG ZHANGJIAGANG,TAMWTH Teys Aust - Tamworth,TAMWTH Teys Aust - Tamworth,CNZJG ZHANGJIAGANG,HEADOF Teys Australia Pty Ltd
FINE MEAT CO LTD,601414,KRGWH GWANGJU WAREHOUSE,LAGOCS Teys Aust - Distribution,LAGSTO Teys at Lago Storage Age,KRGWH GWANGJU WAREHOUSE,HEADOF Teys Australia Pty Ltd
FINE MEAT CO LTD,601415,KRGWH GWANGJU WAREHOUSE,ROCKON Teys Aust - Rockhampton,ROCKON Teys Aust - Rockhampton,KRGWH GWANGJU WAREHOUSE,HEADOF Teys Australia Pty Ltd
FINE MEAT CO LTD,601416,KRGWH GWANGJU WAREHOUSE,BEENLH Teys Aust - Beenleigh,BEENLH Teys Aust - Beenleigh,KRGWH GWANGJU WAREHOUSE,HEADOF Teys Australia Pty Ltd
FINE MEAT CO LTD,601417,KRGWH GWANGJU WAREHOUSE,NARACT Teys Aust - Naracoorte,NARACT Teys Aust - Naracoorte,KRGWH GWANGJU WAREHOUSE,HEADOF Teys Australia Pty Ltd
FINE MEAT CO LTD,601418,KRGWH GWANGJU WAREHOUSE,WAGGAW Teys Aust - Wagga,WAGGAW Teys Aust - Wagga,KRGWH GWANGJU WAREHOUSE,HEADOF Teys Australia Pty Ltd
FINE MEAT CO LTD,601419,KRGWH GWANGJU WAREHOUSE,BILOEL Teys Aust - Biloela,BILOEL Teys Aust - Biloela,KRGWH GWANGJU WAREHOUSE,HEADOF Teys Australia Pty Ltd
FINE MEAT CO LTD,601420,KRGWH GWANGJU WAREHOUSE,INNISF Teys Australia Pty Ltd,INNISF Teys Australia Pty Ltd,KRGWH GWANGJU WAREHOUSE,HEADOF Teys Australia Pty Ltd
FINE MEAT CO LTD,601421,KRGWH GWANGJU WAREHOUSE,TAMWTH Teys Aust - Tamworth,TAMWTH Teys Aust - Tamworth,KRGWH GWANGJU WAREHOUSE,HEADOF Teys Australia Pty Ltd
STARZEN INTERNATIONAL COMPANY LIMITED,600179,JPYOK YOKOHAMA,BILOEL Teys Aust - Biloela,BILOEL Teys Aust - Biloela,JPYOK YOKOHAMA,HEADOF Teys Australia Pty Ltd
STARZEN INTERNATIONAL COMPANY LIMITED,600180,JPYOK YOKOHAMA,ROCKON Teys Aust - Rockhampton,ROCKON Teys Aust - Rockhampton,JPYOK YOKOHAMA,HEADOF Teys Australia Pty Ltd
STARZEN INTERNATIONAL COMPANY LIMITED,600181,JPYOK YOKOHAMA,WAGGAW Teys Aust - Wagga,WAGGAW Teys Aust - Wagga,JPYOK YOKOHAMA,HEADOF Teys Australia Pty Ltd
STARZEN INTERNATIONAL COMPANY LIMITED,600182,JPYOK YOKOHAMA,NARACT Teys Aust - Naracoorte,NARACT Teys Aust - Naracoorte,JPYOK YOKOHAMA,HEADOF Teys Australia Pty Ltd
STARZEN INTERNATIONAL COMPANY LIMITED,600183,JPYOK YOKOHAMA,INNISF Teys Australia Pty Ltd,INNISF Teys Australia Pty Ltd,JPYOK YOKOHAMA,HEADOF Teys Australia Pty Ltd
STARZEN INTERNATIONAL COMPANY LIMITED,600184,JPYOK YOKOHAMA,BEENLH Teys Aust - Beenleigh,BEENLH Teys Aust - Beenleigh,JPYOK YOKOHAMA,HEADOF Teys Australia Pty Ltd
HANJUNG FOOD LTD.,600519,KRGWH GWANGJU WAREHOUSE,NARACT Teys Aust - Naracoorte,NARACT Teys Aust - Naracoorte,KRGWH GWANGJU WAREHOUSE,HEADOF Teys Australia Pty Ltd
HANJUNG FOOD LTD.,600520,KRINC INCHEON AIR PORT,TAMWTH Teys Aust - Tamworth,TAMWTH Teys Aust - Tamworth,KRINC INCHEON AIR PORT,HEADOF Teys Australia Pty Ltd
HANJUNG FOOD LTD.,600521,KRGWH GWANGJU WAREHOUSE,WAGGAW Teys Aust - Wagga,WAGGAW Teys Aust - Wagga,KRGWH GWANGJU WAREHOUSE,HEADOF Teys Australia Pty Ltd
HANJUNG FOOD LTD.,600522,KRINC INCHEON AIR PORT,LAGOCS Teys Aust - Distribution,LAGSTO Teys at Lago Storage Age,KRINC INCHEON AIR PORT,HEADOF Teys Australia Pty Ltd
HANJUNG FOOD LTD.,600523,KRGWH GWANGJU WAREHOUSE,BILOEL Teys Aust - Biloela,BILOEL Teys Aust - Biloela,KRGWH GWANGJU WAREHOUSE,HEADOF Teys Australia Pty Ltd
HANJUNG FOOD LTD.,600524,KRINC INCHEON AIR PORT,BEENLH Teys Aust - Beenleigh,BEENLH Teys Aust - Beenleigh,KRINC INCHEON AIR PORT,HEADOF Teys Australia Pty Ltd
HANJUNG FOOD LTD.,600525,KRGWH GWANGJU WAREHOUSE,ROCKON Teys Aust - Rockhampton,ROCKON Teys Aust - Rockhampton,KRGWH GWANGJU WAREHOUSE,HEADOF Teys Australia Pty Ltd
HANJUNG FOOD LTD.,600526,KRINC INCHEON AIR PORT,INNISF Teys Australia Pty Ltd,INNISF Teys Australia Pty Ltd,KRINC INCHEON AIR PORT,HEADOF Teys Australia Pty Ltd
TEYS USA INC.,601847,USHOU HOUSTON,LAGOCS Teys Aust - Distribution,LAGSTO Teys at Lago Storage Age,USHOU HOUSTON,HEADOF Teys Australia Pty Ltd
TEYS USA INC.,601848,USMIA MIAMI,BILOEL Teys Aust - Biloela,BILOEL Teys Aust - Biloela,USMIA MIAMI,HEADOF Teys Australia Pty Ltd
TEYS USA INC.,601849,BRSUA SUAPE,ROCKON Teys Aust - Rockhampton,ROCKON Teys Aust - Rockhampton,BRSUA SUAPE,HEADOF Teys Australia Pty Ltd
TEYS USA INC.,601850,BRNVT NAVEGANTES,WAGGAW Teys Aust - Wagga,WAGGAW Teys Aust - Wagga,BRNVT NAVEGANTES,HEADOF Teys Australia Pty Ltd
TEYS USA INC.,601851,USHNL HONOLULU,BEENLH Teys Aust - Beenleigh,BEENLH Teys Aust - Beenleigh,USHNL HONOLULU,HEADOF Teys Australia Pty Ltd
TEYS USA INC.,601852,USSEA SEATTLE,NARACT Teys Aust - Naracoorte,NARACT Teys Aust - Naracoorte,USSEA SEATTLE,HEADOF Teys Australia Pty Ltd
TEYS USA INC.,601853,MXMXL MEXICALI,TAMWTH Teys Aust - Tamworth,TAMWTH Teys Aust - Tamworth,MXMXL MEXICALI,HEADOF Teys Australia Pty Ltd
TEYS USA INC.,601854,CATOR TORONTO,INNISF Teys Australia Pty Ltd,INNISF Teys Australia Pty Ltd,CATOR TORONTO,INNI Teys Australia Pty Ltd
TEYS USA INC.,601855,BRMAO MANAUS,LAGOCS Teys Aust - Distribution,LAGSTO Teys at Lago Storage Age,BRMAO MANAUS,HEADOF Teys Australia Pty Ltd
TEYS USA INC.,601856,BRPEC PECEM,BILOEL Teys Aust - Biloela,BILOEL Teys Aust - Biloela,BRPEC PECEM,HEADOF Teys Australia Pty Ltd
ITOCHU CORPORATION,601438,JPYOK YOKOHAMA,BILOEL Teys Aust - Biloela,BILOEL Teys Aust - Biloela,JPYOK YOKOHAMA,HEADOF Teys Australia Pty Ltd
ITOCHU CORPORATION,601439,JPYOK YOKOHAMA,NARACT Teys Aust - Naracoorte,NARACT Teys Aust - Naracoorte,JPYOK YOKOHAMA,HEADOF Teys Australia Pty Ltd
ITOCHU CORPORATION,601440,JPYOK YOKOHAMA,WAGGAW Teys Aust - Wagga,WAGGAW Teys Aust - Wagga,JPYOK YOKOHAMA,WAGG Teys Aust - Wagga Wagga P
ITOCHU CORPORATION,601441,JPYOK YOKOHAMA,ROCKON Teys Aust - Rockhampton,ROCKON Teys Aust - Rockhampton,JPYOK YOKOHAMA,HEADOF Teys Australia Pty Ltd
ITOCHU CORPORATION,601442,JPYOK YOKOHAMA,BEENLH Teys Aust - Beenleigh,BEENLH Teys Aust - Beenleigh,JPYOK YOKOHAMA,HEADOF Teys Australia Pty Ltd
ITOCHU CORPORATION,601443,JPYOK YOKOHAMA,LAGOCS Teys Aust - Distribution,LAGSTO Teys at Lago Storage Age,JPYOK YOKOHAMA,HEADOF Teys Australia Pty Ltd
ITOCHU CORPORATION,601444,JPYOK YOKOHAMA,TAMWTH Teys Aust - Tamworth,TAMWTH Teys Aust - Tamworth,JPYOK YOKOHAMA,HEADOF Teys Australia Pty Ltd
BOBOS MEAT TRADING,600627,KRYIN YONG-IN WAREHOUSE,WAGGAW Teys Aust - Wagga,WAGGAW Teys Aust - Wagga,KRYIN YONG-IN WAREHOUSE,HEADOF Teys Australia Pty Ltd
BOBOS MEAT TRADING,600628,KRBUS BUSAN,ROCKON Teys Aust - Rockhampton,ROCKON Teys Aust - Rockhampton,KRBUS BUSAN,HEADOF Teys Australia Pty Ltd
BOBOS MEAT TRADING,600629,KRYIN YONG-IN WAREHOUSE,NARACT Teys Aust - Naracoorte,NARACT Teys Aust - Naracoorte,KRYIN YONG-IN WAREHOUSE,HEADOF Teys Australia Pty Ltd
BOBOS MEAT TRADING,600630,KRBUS BUSAN,LAGOCS Teys Aust - Distribution,LAGSTO Teys at Lago Storage Age,KRBUS BUSAN,HEADOF Teys Australia Pty Ltd
BOBOS MEAT TRADING,600631,KRYIN YONG-IN WAREHOUSE,BILOEL Teys Aust - Biloela,BILOEL Teys Aust - Biloela,KRYIN YONG-IN WAREHOUSE,HEADOF Teys Australia Pty Ltd
BOBOS MEAT TRADING,600632,KRBUS BUSAN,TAMWTH Teys Aust - Tamworth,TAMWTH Teys Aust - Tamworth,KRBUS BUSAN,HEADOF Teys Australia Pty Ltd
BOBOS MEAT TRADING,600633,KRYIN YONG-IN WAREHOUSE,BEENLH Teys Aust - Beenleigh,BEENLH Teys Aust - Beenleigh,KRYIN YONG-IN WAREHOUSE,HEADOF Teys Australia Pty Ltd
BOBOS MEAT TRADING,600634,KRBUS BUSAN,INNISF Teys Australia Pty Ltd,INNISF Teys Australia Pty Ltd,KRBUS BUSAN,HEADOF Teys Australia Pty Ltd
"ZENITH CO.,LTD",601358,KRGWH GWANGJU WAREHOUSE,LAGOCS Teys Aust - Distribution,LAGSTO Teys at Lago Storage Age,KRGWH GWANGJU WAREHOUSE,HEADOF Teys Australia Pty Ltd
"ZENITH CO.,LTD",601359,KRGWH GWANGJU WAREHOUSE,TAMWTH Teys Aust - Tamworth,TAMWTH Teys Aust - Tamworth,KRGWH GWANGJU WAREHOUSE,HEADOF Teys Australia Pty Ltd
"ZENITH CO.,LTD",601360,KRGWH GWANGJU WAREHOUSE,WAGGAW Teys Aust - Wagga,WAGGAW Teys Aust - Wagga,KRGWH GWANGJU WAREHOUSE,HEADOF Teys Australia Pty Ltd
"ZENITH CO.,LTD",601361,KRGWH GWANGJU WAREHOUSE,BEENLH Teys Aust - Beenleigh,BEENLH Teys Aust - Beenleigh,KRGWH GWANGJU WAREHOUSE,HEADOF Teys Australia Pty Ltd
"ZENITH CO.,LTD",601362,KRGWH GWANGJU WAREHOUSE,BILOEL Teys Aust - Biloela,BILOEL Teys Aust - Biloela,KRGWH GWANGJU WAREHOUSE,HEADOF Teys Australia Pty Ltd
"ZENITH CO.,LTD",601363,KRGWH GWANGJU WAREHOUSE,ROCKON Teys Aust - Rockhampton,ROCKON Teys Aust - Rockhampton,KRGWH GWANGJU WAREHOUSE,HEADOF Teys Australia Pty Ltd
HYUNDAI CORPORATION HOLDINGS,723697,KRGWH GWANGJU WAREHOUSE,WAGGAW Teys Aust - Wagga,WAGGAW Teys Aust - Wagga,KRGWH GWANGJU WAREHOUSE,HEADOF Teys Australia Pty Ltd
HYUNDAI CORPORATION HOLDINGS,723698,KRGWH GWANGJU WAREHOUSE,LAGOCS Teys Aust - Distribution,LAGSTO Teys at Lago Storage Age,KRGWH GWANGJU WAREHOUSE,HEADOF Teys Australia Pty Ltd
HYUNDAI CORPORATION HOLDINGS,723699,KRGWH GWANGJU WAREHOUSE,BEENLH Teys Aust - Beenleigh,BEENLH Teys Aust - Beenleigh,KRGWH GWANGJU WAREHOUSE,HEADOF Teys Australia Pty Ltd
SHANGHAI FUZHENG TRADING CO LTD.,705293,CNZJG ZHANGJIAGANG,NARACT Teys Aust - Naracoorte,NARACT Teys Aust - Naracoorte,CNZJG ZHANGJIAGANG,HEADOF Teys Australia Pty Ltd
SHANGHAI FUZHENG TRADING CO LTD.,705294,CNZJG ZHANGJIAGANG,BEENLH Teys Aust - Beenleigh,BEENLH Teys Aust - Beenleigh,CNZJG ZHANGJIAGANG,HEADOF Teys Australia Pty Ltd
SHANGHAI FUZHENG TRADING CO LTD.,705295,CNZJG ZHANGJIAGANG,BILOEL Teys Aust - Biloela,BILOEL Teys Aust - Biloela,CNZJG ZHANGJIAGANG,HEADOF Teys Australia Pty Ltd
SHANGHAI FUZHENG TRADING CO LTD.,705296,CNZJG ZHANGJIAGANG,ROCKON Teys Aust - Rockhampton,ROCKON Teys Aust - Rockhampton,CNZJG ZHANGJIAGANG,HEADOF Teys Australia Pty Ltd
SHANGHAI FUZHENG TRADING CO LTD.,705297,CNZJG ZHANGJIAGANG,WAGGAW Teys Aust - Wagga,WAGGAW Teys Aust - Wagga,CNZJG ZHANGJIAGANG,HEADOF Teys Australia Pty Ltd
SHANGHAI FUZHENG TRADING CO LTD.,705298,CNZJG ZHANGJIAGANG,TAMWTH Teys Aust - Tamworth,TAMWTH Teys Aust - Tamworth,CNZJG ZHANGJIAGANG,HEADOF Teys Australia Pty Ltd
SHANGHAI FUZHENG TRADING CO LTD.,705299,CNZJG ZHANGJIAGANG,INNISF Teys Australia Pty Ltd,INNISF Teys Australia Pty Ltd,CNZJG ZHANGJIAGANG,INNI Teys Australia Pty Ltd
SHANGHAI FUZHENG TRADING CO LTD.,705300,CNZJG ZHANGJIAGANG,BEENLH Teys Aust - Beenleigh,INNISF Teys Australia Pty Ltd,CNZJG ZHANGJIAGANG,HEADOF Teys Australia Pty Ltd
KANEMATSU (HONG KONG),719422,JPYOK YOKOHAMA,WAGGAW Teys Aust - Wagga,WAGGAW Teys Aust - Wagga,JPYOK YOKOHAMA,HEADOF Teys Australia Pty Ltd
KANEMATSU (HONG KONG),719423,JPYOK YOKOHAMA,ROCKON Teys Aust - Rockhampton,ROCKON Teys Aust - Rockhampton,JPYOK YOKOHAMA,HEADOF Teys Australia Pty Ltd
KANEMATSU (HONG KONG),719424,JPYOK YOKOHAMA,TAMWTH Teys Aust - Tamworth,TAMWTH Teys Aust - Tamworth,JPYOK YOKOHAMA,HEADOF Teys Australia Pty Ltd
KANEMATSU (HONG KONG),719425,JPYOK YOKOHAMA,NARACT Teys Aust - Naracoorte,NARACT Teys Aust - Naracoorte,JPYOK YOKOHAMA,HEADOF Teys Australia Pty Ltd
KANEMATSU (HONG KONG),719426,JPYOK YOKOHAMA,BILOEL Teys Aust - Biloela,BILOEL Teys Aust - Biloela,JPYOK YOKOHAMA,HEADOF Teys Australia Pty Ltd
KANEMATSU (HONG KONG),719427,JPYOK YOKOHAMA,LAGOCS Teys Aust - Distribution,LAGSTO Teys at Lago Storage Age,JPYOK YOKOHAMA,HEADOF Teys Australia Pty Ltd
KANEMATSU (HONG KONG),719428,JPYOK YOKOHAMA,BEENLH Teys Aust - Beenleigh,BEENLH Teys Aust - Beenleigh,JPYOK YOKOHAMA,HEADOF Teys Australia Pty Ltd
ZENCHIKU (AUSTRALIA) PTY LIMITED,602107,JPYOK YOKOHAMA,BEENLH Teys Aust - Beenleigh,BEENLH Teys Aust - Beenleigh,JPYOK YOKOHAMA,HEADOF Teys Australia Pty Ltd
ZENCHIKU (AUSTRALIA) PTY LIMITED,602108,JPYOK YOKOHAMA,BILOEL Teys Aust - Biloela,BILOEL Teys Aust - Biloela,JPYOK YOKOHAMA,HEADOF Teys Australia Pty Ltd
ZENCHIKU (AUSTRALIA) PTY LIMITED,602109,JPYOK YOKOHAMA,ROCKON Teys Aust - Rockhampton,ROCKON Teys Aust - Rockhampton,JPYOK YOKOHAMA,HEADOF Teys Australia Pty Ltd
ZENCHIKU (AUSTRALIA) PTY LIMITED,602110,JPYOK YOKOHAMA,LAGOCS Teys Aust - Distribution,LAGSTO Teys at Lago Storage Age,JPYOK YOKOHAMA,HEADOF Teys Australia Pty Ltd
ZENCHIKU (AUSTRALIA) PTY LIMITED,602111,JPYOK YOKOHAMA,WAGGAW Teys Aust - Wagga,WAGGAW Teys Aust - Wagga,JPYOK YOKOHAMA,HEADOF Teys Australia Pty Ltd
ZENCHIKU (AUSTRALIA) PTY LIMITED,602112,JPYOK YOKOHAMA,NARACT Teys Aust - Naracoorte,NARACT Teys Aust - Naracoorte,JPYOK YOKOHAMA,HEADOF Teys Australia Pty Ltd
ZENCHIKU (AUSTRALIA) PTY LIMITED,602113,JPYOK YOKOHAMA,TAMWTH Teys Aust - Tamworth,TAMWTH Teys Aust - Tamworth,JPYOK YOKOHAMA,HEADOF Teys Australia Pty Ltd
ZENCHIKU (AUSTRALIA) PTY LIMITED,602114,JPYOK YOKOHAMA,INNISF Teys Australia Pty Ltd,INNISF Teys Australia Pty Ltd,JPYOK YOKOHAMA,INNI Teys Australia Pty Ltd
NOMURA TRADING CO LTD.,601357,JPYOK YOKOHAMA,WAGGAW Teys Aust - Wagga,WAGGAW Teys Aust - Wagga,JPYOK YOKOHAMA,WAGG Teys Aust - Wagga Wagga P
NOMURA TRADING CO LTD.,601358,"JPKIX KANSAI INT APT, OSAKA",BEENLH Teys Aust - Beenleigh,BEENLH Teys Aust - Beenleigh,"JPKIX KANSAI INT APT, OSAKA",HEADOF Teys Australia Pty Ltd
NOMURA TRADING CO LTD.,601359,JPYOK YOKOHAMA,BILOEL Teys Aust - Biloela,BILOEL Teys Aust - Biloela,JPYOK YOKOHAMA,HEADOF Teys Australia Pty Ltd
NOMURA TRADING CO LTD.,601360,"JPKIX KANSAI INT APT, OSAKA",LAGOCS Teys Aust - Distribution,LAGSTO Teys at Lago Storage Age,"JPKIX KANSAI INT APT, OSAKA",HEADOF Teys Australia Pty Ltd
NOMURA TRADING CO LTD.,601361,JPYOK YOKOHAMA,NARACT Teys Aust - Naracoorte,NARACT Teys Aust - Naracoorte,JPYOK YOKOHAMA,HEADOF Teys Australia Pty Ltd
NOMURA TRADING CO LTD.,601362,"JPKIX KANSAI INT APT, OSAKA",ROCKON Teys Aust - Rockhampton,ROCKON Teys Aust - Rockhampton,"JPKIX KANSAI INT APT, OSAKA",HEADOF Teys Australia Pty Ltd
NOMURA TRADING CO LTD.,601363,JPYOK YOKOHAMA,TAMWTH Teys Aust - Tamworth,TAMWTH Teys Aust - Tamworth,JPYOK YOKOHAMA,HEADOF Teys Australia Pty Ltd
JOC GREAT WALL CORPORATION,723099,CNYTI YANTIAN,ROCKON Teys Aust - Rockhampton,ROCKON Teys Aust - Rockhampton,CNYTI YANTIAN,HEADOF Teys Australia Pty Ltd
JOC GREAT WALL CORPORATION,723100,CNYTN YANTIAN,BILOEL Teys Aust - Biloela,BILOEL Teys Aust - Biloela,CNYTN YANTIAN,HEADOF Teys Australia Pty Ltd
JOC GREAT WALL CORPORATION,723101,CNYTG YANTAI,BEENLH Teys Aust - Beenleigh,BEENLH Teys Aust - Beenleigh,CNYTG YANTAI,HEADOF Teys Australia Pty Ltd
JOC GREAT WALL CORPORATION,723102,CNYTI YANTIAN,NARACT Teys Aust - Naracoorte,NARACT Teys Aust - Naracoorte,CNYTI YANTIAN,HEADOF Teys Australia Pty Ltd
JOC GREAT WALL CORPORATION,723103,CNYTN YANTIAN,WAGGAW Teys Aust - Wagga,WAGGAW Teys Aust - Wagga,CNYTN YANTIAN,HEADOF Teys Australia Pty Ltd
JOC GREAT WALL CORPORATION,723104,CNYTG YANTAI,INNISF Teys Australia Pty Ltd,INNISF Teys Australia Pty Ltd,CNYTG YANTAI,HEADOF Teys Australia Pty Ltd
JOC GREAT WALL CORPORATION,723105,CNYTI YANTIAN,TAMWTH Teys Aust - Tamworth,TAMWTH Teys Aust - Tamworth,CNYTI YANTIAN,HEADOF Teys Australia Pty Ltd
PARKNSHOP A DIVISION OF PARKNSHOP (HK),601441,HKHKG HONG KONG,BILOEL Teys Aust - Biloela,BILOEL Teys Aust - Biloela,HKHKG HONG KONG,HEADOF Teys Australia Pty Ltd
PARKNSHOP A DIVISION OF PARKNSHOP (HK),601442,HKHKG HONG KONG,BEENLH Teys Aust - Beenleigh,BEENLH Teys Aust - Beenleigh,HKHKG HONG KONG,HEADOF Teys Australia Pty Ltd
PARKNSHOP A DIVISION OF PARKNSHOP (HK),601443,HKHKG HONG KONG,ROCKON Teys Aust - Rockhampton,ROCKON Teys Aust - Rockhampton,HKHKG HONG KONG,HEADOF Teys Australia Pty Ltd
"YU-HO FOODS CO., LTD.",602062,TWKHH KAOHSIUNG,LAGOCS Teys Aust - Distribution,LAGSTO Teys at Lago Storage Age,TWKHH KAOHSIUNG,HEADOF Teys Australia Pty Ltd
EAGLE COLD STORAGE ENTERPRISE CO LTD,600138,TWTXG TAICHUNG,NARACT Teys Aust - Naracoorte,NARACT Teys Aust - Naracoorte,TWTXG TAICHUNG,BEEN Teys Australia Beenleigh
EAGLE COLD STORAGE ENTERPRISE CO LTD,600139,TWTXG TAICHUNG,WAGGAW Teys Aust - Wagga,WAGGAW Teys Aust - Wagga,TWTXG TAICHUNG,WAGG Teys Aust - Wagga Wagga P
EAGLE COLD STORAGE ENTERPRISE CO LTD,600140,TWTXG TAICHUNG,BEENLH Teys Aust - Beenleigh,BEENLH Teys Aust - Beenleigh,TWTXG TAICHUNG,HEADOF Teys Australia Pty Ltd
EAGLE COLD STORAGE ENTERPRISE CO LTD,600141,TWTXG TAICHUNG,ROCKON Teys Aust - Rockhampton,ROCKON Teys Aust - Rockhampton,TWTXG TAICHUNG,HEADOF Teys Australia Pty Ltd
EAGLE COLD STORAGE ENTERPRISE CO LTD,600142,TWTXG TAICHUNG,BEENLH Teys Aust - Beenleigh,BEENLH Teys Aust - Beenleigh,TWTXG TAICHUNG,HEADOF Teys Australia Pty Ltd
EAGLE COLD STORAGE ENTERPRISE CO LTD,600143,TWTXG TAICHUNG,TAMWTH Teys Aust - Tamworth,TAMWTH Teys Aust - Tamworth,TWTXG TAICHUNG,HEADOF Teys Australia Pty Ltd
EAGLE COLD STORAGE ENTERPRISE CO LTD,600144,TWTXG TAICHUNG,WAGGAW Teys Aust - Wagga,WAGGAW Teys Aust - Wagga,TWTXG TAICHUNG,HEADOF Teys Australia Pty Ltd
AGRICOMM TRADING AUST. PTY LTD,702685,"IDJKT JAKARTA, JAVA",LAGOCS Teys Aust - Distribution,LAGSTO Teys at Lago Storage Age,"IDJKT JAKARTA, JAVA",HEADOF Teys Australia Pty Ltd
AGRICOMM TRADING AUST. PTY LTD,702686,"IDJKT JAKARTA, JAVA",BEENLH Teys Aust - Beenleigh,BEENLH Teys Aust - Beenleigh,"IDJKT JAKARTA, JAVA",HEADOF Teys Australia Pty Ltd
AGRICOMM TRADING AUST. PTY LTD,702687,"IDJKT JAKARTA, JAVA",NARACT Teys Aust - Naracoorte,NARACT Teys Aust - Naracoorte,"IDJKT JAKARTA, JAVA",HEADOF Teys Australia Pty Ltd
AGRICOMM TRADING AUST. PTY LTD,702688,"IDJKT JAKARTA, JAVA",BILOEL Teys Aust - Biloela,BILOEL Teys Aust - Biloela,"IDJKT JAKARTA, JAVA",HEADOF Teys Australia Pty Ltd
AGRICOMM TRADING AUST. PTY LTD,702689,"IDJKT JAKARTA, JAVA",INNISF Teys Australia Pty Ltd,INNISF Teys Australia Pty Ltd,"IDJKT JAKARTA, JAVA",HEADOF Teys Australia Pty Ltd
NATURAL MEAT CORPORATION,702685,TWKHH KAOHSIUNG,WAGGAW Teys Aust - Wagga,WAGGAW Teys Aust - Wagga,TWKHH KAOHSIUNG,HEADOF Teys Australia Pty Ltd
NATURAL MEAT CORPORATION,702686,TWKHH KAOHSIUNG,ROCKON Teys Aust - Rockhampton,ROCKON Teys Aust - Rockhampton,TWKHH KAOHSIUNG,HEADOF Teys Australia Pty Ltd
TAI LI FU CORPORATION,601845,TWTXG TAICHUNG,BILOEL Teys Aust - Biloela,BILOEL Teys Aust - Biloela,TWTXG TAICHUNG,HEADOF Teys Australia Pty Ltd
TAI LI FU CORPORATION,601846,TWKEL KEELUNG,ROCKON Teys Aust - Rockhampton,ROCKON Teys Aust - Rockhampton,TWKEL KEELUNG,HEADOF Teys Australia Pty Ltd
TAI LI FU CORPORATION,601847,TWTXG TAICHUNG,LAGOCS Teys Aust - Distribution,LAGSTO Teys at Lago Storage Age,TWTXG TAICHUNG,HEADOF Teys Australia Pty Ltd
TAI LI FU CORPORATION,601848,TWKEL KEELUNG,BEENLH Teys Aust - Beenleigh,BEENLH Teys Aust - Beenleigh,TWKEL KEELUNG,BEEN Teys Australia Beenleigh
TAI LI FU CORPORATION,601849,TWTXG TAICHUNG,WAGGAW Teys Aust - Wagga,WAGGAW Teys Aust - Wagga,TWTXG TAICHUNG,HEADOF Teys Australia Pty Ltd
TAIYO BUSSAN KAISHA LTD,600103,JPYOK YOKOHAMA,WAGGAW Teys Aust - Wagga,WAGGAW Teys Aust - Wagga,JPYOK YOKOHAMA,HEADOF Teys Australia Pty Ltd
"LEXFARM CO., LTD",705386,KRGWH GWANGJU WAREHOUSE,WAGGAW Teys Aust - Wagga,WAGGAW Teys Aust - Wagga,KRGWH GWANGJU WAREHOUSE,HEADOF Teys Australia Pty Ltd
"LEXFARM CO., LTD",705387,KRINC INCHEON AIR PORT,ROCKON Teys Aust - Rockhampton,ROCKON Teys Aust - Rockhampton,KRINC INCHEON AIR PORT,HEADOF Teys Australia Pty Ltd
"LEXFARM CO., LTD",705388,KRGWH GWANGJU WAREHOUSE,LAGOCS Teys Aust - Distribution,LAGSTO Teys at Lago Storage Age,KRGWH GWANGJU WAREHOUSE,HEADOF Teys Australia Pty Ltd
"LEXFARM CO., LTD",705389,KRINC INCHEON AIR PORT,NARACT Teys Aust - Naracoorte,NARACT Teys Aust - Naracoorte,KRINC INCHEON AIR PORT,HEADOF Teys Australia Pty Ltd
"LEXFARM CO., LTD",705390,KRGWH GWANGJU WAREHOUSE,BILOEL Teys Aust - Biloela,BILOEL Teys Aust - Biloela,KRGWH GWANGJU WAREHOUSE,HEADOF Teys Australia Pty Ltd
"LEXFARM CO., LTD",705391,KRINC INCHEON AIR PORT,TAMWTH Teys Aust - Tamworth,TAMWTH Teys Aust - Tamworth,KRINC INCHEON AIR PORT,HEADOF Teys Australia Pty Ltd
"LEXFARM CO., LTD",705392,KRGWH GWANGJU WAREHOUSE,BEENLH Teys Aust - Beenleigh,BEENLH Teys Aust - Beenleigh,KRGWH GWANGJU WAREHOUSE,HEADOF Teys Australia Pty Ltd
"LEXFARM CO., LTD",705393,KRINC INCHEON AIR PORT,INNISF Teys Australia Pty Ltd,INNISF Teys Australia Pty Ltd,KRINC INCHEON AIR PORT,HEADOF Teys Australia Pty Ltd
ANGLISS SINGAPORE PTE LTD,709552,SGSIN SINGAPORE,NARACT Teys Aust - Naracoorte,NARACT Teys Aust - Naracoorte,SGSIN SINGAPORE,HEADOF Teys Australia Pty Ltd
ANGLISS SINGAPORE PTE LTD,709553,SGSIN SINGAPORE,BEENLH Teys Aust - Beenleigh,BEENLH Teys Aust - Beenleigh,SGSIN SINGAPORE,HEADOF Teys Australia Pty Ltd
HK PTY LTD,600657,"JPKIX KANSAI INT APT, OSAKA",BEENLH Teys Aust - Beenleigh,BEENLH Teys Aust - Beenleigh,"JPKIX KANSAI INT APT, OSAKA",HEADOF Teys Australia Pty Ltd
HK PTY LTD,600658,"JPKIX KANSAI INT APT, OSAKA",ROCKON Teys Aust - Rockhampton,ROCKON Teys Aust - Rockhampton,"JPKIX KANSAI INT APT, OSAKA",HEADOF Teys Australia Pty Ltd
HK PTY LTD,600659,"JPKIX KANSAI INT APT, OSAKA",WAGGAW Teys Aust - Wagga,WAGGAW Teys Aust - Wagga,"JPKIX KANSAI INT APT, OSAKA",HEADOF Teys Australia Pty Ltd
PURCELL INTERNATIONAL,600008,USSEA SEATTLE,ROCKON Teys Aust - Rockhampton,ROCKON Teys Aust - Rockhampton,USSEA SEATTLE,HEADOF Teys Australia Pty Ltd
PURCELL INTERNATIONAL,600009,USMIA MIAMI,LAGOCS Teys Aust - Distribution,LAGSTO Teys at Lago Storage Age,USMIA MIAMI,HEADOF Teys Australia Pty Ltd
PURCELL INTERNATIONAL,600010,USSEA SEATTLE,NARACT Teys Aust - Naracoorte,NARACT Teys Aust - Naracoorte,USSEA SEATTLE,HEADOF Teys Australia Pty Ltd
PURCELL INTERNATIONAL,600011,USMIA MIAMI,BEENLH Teys Aust - Beenleigh,BEENLH Teys Aust - Beenleigh,USMIA MIAMI,HEADOF Teys Australia Pty Ltd
PURCELL INTERNATIONAL,600012,USSEA SEATTLE,WAGGAW Teys Aust - Wagga,WAGGAW Teys Aust - Wagga,USSEA SEATTLE,HEADOF Teys Australia Pty Ltd
PURCELL INTERNATIONAL,600013,USMIA MIAMI,BILOEL Teys Aust - Biloela,BILOEL Teys Aust - Biloela,USMIA MIAMI,HEADOF Teys Australia Pty Ltd
ORLEANS INTERNATIONAL INC,600104,USSEA SEATTLE,BILOEL Teys Aust - Biloela,BILOEL Teys Aust - Biloela,USSEA SEATTLE,HEADOF Teys Australia Pty Ltd
ORLEANS INTERNATIONAL INC,600105,USHNL HONOLULU,NARACT Teys Aust - Naracoorte,NARACT Teys Aust - Naracoorte,USHNL HONOLULU,HEADOF Teys Australia Pty Ltd
ORLEANS INTERNATIONAL INC,600106,USMIA MIAMI,BEENLH Teys Aust - Beenleigh,BEENLH Teys Aust - Beenleigh,USMIA MIAMI,HEADOF Teys Australia Pty Ltd
ORLEANS INTERNATIONAL INC,600107,USSEA SEATTLE,ROCKON Teys Aust - Rockhampton,ROCKON Teys Aust - Rockhampton,USSEA SEATTLE,HEADOF Teys Australia Pty Ltd
ORLEANS INTERNATIONAL INC,600108,USHNL HONOLULU,LAGOCS Teys Aust - Distribution,LAGSTO Teys at Lago Storage Age,USHNL HONOLULU,HEADOF Teys Australia Pty Ltd
ORLEANS INTERNATIONAL INC,600109,USMIA MIAMI,WAGGAW Teys Aust - Wagga,WAGGAW Teys Aust - Wagga,USMIA MIAMI,HEADOF Teys Australia Pty Ltd
ORLEANS INTERNATIONAL INC,600110,USSEA SEATTLE,INNISF Teys Australia Pty Ltd,INNISF Teys Australia Pty Ltd,USSEA SEATTLE,HEADOF Teys Australia Pty Ltd
OKMEAT INC.,601674,KRSWH SEOUL WAREHOUSE,LAGOCS Teys Aust - Distribution,LAGSTO Teys at Lago Storage Age,KRSWH SEOUL WAREHOUSE,HEADOF Teys Australia Pty Ltd
OKMEAT INC.,601675,KRINC INCHEON AIR PORT,BEENLH Teys Aust - Beenleigh,BEENLH Teys Aust - Beenleigh,KRINC INCHEON AIR PORT,HEADOF Teys Australia Pty Ltd
OKMEAT INC.,601676,KRSEL SEOUL,NARACT Teys Aust - Naracoorte,NARACT Teys Aust - Naracoorte,KRSEL SEOUL,HEADOF Teys Australia Pty Ltd
OKMEAT INC.,601677,KRSWH SEOUL WAREHOUSE,WAGGAW Teys Aust - Wagga,WAGGAW Teys Aust - Wagga,KRSWH SEOUL WAREHOUSE,HEADOF Teys Australia Pty Ltd
OKMEAT INC.,601678,KRINC INCHEON AIR PORT,ROCKON Teys Aust - Rockhampton,ROCKON Teys Aust - Rockhampton,KRINC INCHEON AIR PORT,HEADOF Teys Australia Pty Ltd
OKMEAT INC.,601679,KRSEL SEOUL,BILOEL Teys Aust - Biloela,BILOEL Teys Aust - Biloela,KRSEL SEOUL,HEADOF Teys Australia Pty Ltd
FARMLANDS MATHIAS INTERNATIONAL P/L,600171,ZADUR DURBAN,WAGGAW Teys Aust - Wagga,WAGGAW Teys Aust - Wagga,ZADUR DURBAN,HEADOF Teys Australia Pty Ltd
FARMLANDS MATHIAS INTERNATIONAL P/L,600172,PGMAG MADANG,ROCKON Teys Aust - Rockhampton,ROCKON Teys Aust - Rockhampton,PGMAG MADANG,HEADOF Teys Australia Pty Ltd
FARMLANDS MATHIAS INTERNATIONAL P/L,600173,ZADUR DURBAN,LAGOCS Teys Aust - Distribution,LAGSTO Teys at Lago Storage Age,ZADUR DURBAN,HEADOF Teys Australia Pty Ltd
FARMLANDS MATHIAS INTERNATIONAL P/L,600174,PGMAG MADANG,TAMWTH Teys Aust - Tamworth,TAMWTH Teys Aust - Tamworth,PGMAG MADANG,HEADOF Teys Australia Pty Ltd
FARMLANDS MATHIAS INTERNATIONAL P/L,600175,ZADUR DURBAN,NARACT Teys Aust - Naracoorte,NARACT Teys Aust - Naracoorte,ZADUR DURBAN,HEADOF Teys Australia Pty Ltd
FARMLANDS MATHIAS INTERNATIONAL P/L,600176,PGMAG MADANG,INNISF Teys Australia Pty Ltd,INNISF Teys Australia Pty Ltd,PGMAG MADANG,HEADOF Teys Australia Pty Ltd
PINQIAO FOODS CORPORATION,713218,TWKEL KEELUNG,WAGGAW Teys Aust - Wagga,WAGGAW Teys Aust - Wagga,TWKEL KEELUNG,HEADOF Teys Australia Pty Ltd
PINQIAO FOODS CORPORATION,713219,TWKEL KEELUNG,BILOEL Teys Aust - Biloela,BILOEL Teys Aust - Biloela,TWKEL KEELUNG,BILO Teys Australia Biloela Pt
PINQIAO FOODS CORPORATION,713220,TWKEL KEELUNG,LAGOCS Teys Aust - Distribution,LAGSTO Teys at Lago Storage Age,TWKEL KEELUNG,HEADOF Teys Australia Pty Ltd
PINQIAO FOODS CORPORATION,713221,TWKEL KEELUNG,BEENLH Teys Aust - Beenleigh,BEENLH Teys Aust - Beenleigh,TWKEL KEELUNG,BEEN Teys Australia Beenleigh
PINQIAO FOODS CORPORATION,713222,TWKEL KEELUNG,BILOEL Teys Aust - Biloela,BILOEL Teys Aust - Biloela,TWKEL KEELUNG,HEADOF Teys Australia Pty Ltd
PINQIAO FOODS CORPORATION,713223,TWKEL KEELUNG,TAMWTH Teys Aust - Tamworth,TAMWTH Teys Aust - Tamworth,TWKEL KEELUNG,HEADOF Teys Australia Pty Ltd
PINQIAO FOODS CORPORATION,713224,TWKEL KEELUNG,ROCKON Teys Aust - Rockhampton,ROCKON Teys Aust - Rockhampton,TWKEL KEELUNG,HEADOF Teys Australia Pty Ltd
GYUNWOO FOOD LTD,711477,KRGWH GWANGJU WAREHOUSE,LAGOCS Teys Aust - Distribution,LAGSTO Teys at Lago Storage Age,KRGWH GWANGJU WAREHOUSE,HEADOF Teys Australia Pty Ltd
GYUNWOO FOOD LTD,711478,KRGWH GWANGJU WAREHOUSE,WAGGAW Teys Aust - Wagga,WAGGAW Teys Aust - Wagga,KRGWH GWANGJU WAREHOUSE,HEADOF Teys Australia Pty Ltd
GYUNWOO FOOD LTD,711479,KRGWH GWANGJU WAREHOUSE,TAMWTH Teys Aust - Tamworth,TAMWTH Teys Aust - Tamworth,KRGWH GWANGJU WAREHOUSE,HEADOF Teys Australia Pty Ltd
GYUNWOO FOOD LTD,711480,KRGWH GWANGJU WAREHOUSE,ROCKON Teys Aust - Rockhampton,ROCKON Teys Aust - Rockhampton,KRGWH GWANGJU WAREHOUSE,HEADOF Teys Australia Pty Ltd
GYUNWOO FOOD LTD,711481,KRGWH GWANGJU WAREHOUSE,NARACT Teys Aust - Naracoorte,NARACT Teys Aust - Naracoorte,KRGWH GWANGJU WAREHOUSE,HEADOF Teys Australia Pty Ltd
GYUNWOO FOOD LTD,711482,KRGWH GWANGJU WAREHOUSE,BILOEL Teys Aust - Biloela,BILOEL Teys Aust - Biloela,KRGWH GWANGJU WAREHOUSE,HEADOF Teys Australia Pty Ltd
GYUNWOO FOOD LTD,711483,KRGWH GWANGJU WAREHOUSE,BEENLH Teys Aust - Beenleigh,BEENLH Teys Aust - Beenleigh,KRGWH GWANGJU WAREHOUSE,HEADOF Teys Australia Pty Ltd
GYUNWOO FOOD LTD,711484,KRGWH GWANGJU WAREHOUSE,INNISF Teys Australia Pty Ltd,INNISF Teys Australia Pty Ltd,KRGWH GWANGJU WAREHOUSE,HEADOF Teys Australia Pty Ltd
CJ FRESHWAY,600096,KRGWH GWANGJU WAREHOUSE,ROCKON Teys Aust - Rockhampton,ROCKON Teys Aust - Rockhampton,KRGWH GWANGJU WAREHOUSE,HEADOF Teys Australia Pty Ltd
CJ FRESHWAY,600097,KRINC INCHEON AIR PORT,BILOEL Teys Aust - Biloela,BILOEL Teys Aust - Biloela,KRINC INCHEON AIR PORT,HEADOF Teys Australia Pty Ltd
CJ FRESHWAY,600098,KRGWH GWANGJU WAREHOUSE,BEENLH Teys Aust - Beenleigh,BEENLH Teys Aust - Beenleigh,KRGWH GWANGJU WAREHOUSE,HEADOF Teys Australia Pty Ltd
CJ FRESHWAY,600099,KRINC INCHEON AIR PORT,WAGGAW Teys Aust - Wagga,WAGGAW Teys Aust - Wagga,KRINC INCHEON AIR PORT,HEADOF Teys Australia Pty Ltd
CJ FRESHWAY,600100,KRGWH GWANGJU WAREHOUSE,LAGOCS Teys Aust - Distribution,LAGSTO Teys at Lago Storage Age,KRGWH GWANGJU WAREHOUSE,HEADOF Teys Australia Pty Ltd
CJ FRESHWAY,600101,KRINC INCHEON AIR PORT,NARACT Teys Aust - Naracoorte,NARACT Teys Aust - Naracoorte,KRINC INCHEON AIR PORT,HEADOF Teys Australia Pty Ltd
CJ FRESHWAY,600102,KRGWH GWANGJU WAREHOUSE,TAMWTH Teys Aust - Tamworth,TAMWTH Teys Aust - Tamworth,KRGWH GWANGJU WAREHOUSE,HEADOF Teys Australia Pty Ltd
CJ FRESHWAY,600103,KRINC INCHEON AIR PORT,INNISF Teys Australia Pty Ltd,INNISF Teys Australia Pty Ltd,KRINC INCHEON AIR PORT,HEADOF Teys Australia Pty Ltd
"SEKYUNG TRADING CO., LTD",601433,KRYIN YONG-IN WAREHOUSE,NARACT Teys Aust - Naracoorte,NARACT Teys Aust - Naracoorte,KRYIN YONG-IN WAREHOUSE,HEADOF Teys Australia Pty Ltd
"SEKYUNG TRADING CO., LTD",601434,KRYIN YONG-IN WAREHOUSE,ROCKON Teys Aust - Rockhampton,ROCKON Teys Aust - Rockhampton,KRYIN YONG-IN WAREHOUSE,HEADOF Teys Australia Pty Ltd
"SEKYUNG TRADING CO., LTD",601435,KRYIN YONG-IN WAREHOUSE,LAGOCS Teys Aust - Distribution,LAGSTO Teys at Lago Storage Age,KRYIN YONG-IN WAREHOUSE,HEADOF Teys Australia Pty Ltd
"SEKYUNG TRADING CO., LTD",601436,KRYIN YONG-IN WAREHOUSE,TAMWTH Teys Aust - Tamworth,TAMWTH Teys Aust - Tamworth,KRYIN YONG-IN WAREHOUSE,HEADOF Teys Australia Pty Ltd
"SEKYUNG TRADING CO., LTD",601437,KRYIN YONG-IN WAREHOUSE,WAGGAW Teys Aust - Wagga,WAGGAW Teys Aust - Wagga,KRYIN YONG-IN WAREHOUSE,HEADOF Teys Australia Pty Ltd
"SEKYUNG TRADING CO., LTD",601438,KRYIN YONG-IN WAREHOUSE,INNISF Teys Australia Pty Ltd,INNISF Teys Australia Pty Ltd,KRYIN YONG-IN WAREHOUSE,HEADOF Teys Australia Pty Ltd
"SEKYUNG TRADING CO., LTD",601439,KRYIN YONG-IN WAREHOUSE,BILOEL Teys Aust - Biloela,BILOEL Teys Aust - Biloela,KRYIN YONG-IN WAREHOUSE,HEADOF Teys Australia Pty Ltd
BIGSEOUL FOOD SYSTEM CO.,723422,KRYIN YONG-IN WAREHOUSE,WAGGAW Teys Aust - Wagga,WAGGAW Teys Aust - Wagga,KRYIN YONG-IN WAREHOUSE,HEADOF Teys Australia Pty Ltd
BIGSEOUL FOOD SYSTEM CO.,723423,KRYIN YONG-IN WAREHOUSE,LAGOCS Teys Aust - Distribution,LAGSTO Teys at Lago Storage Age,KRYIN YONG-IN WAREHOUSE,HEADOF Teys Australia Pty Ltd
BIGSEOUL FOOD SYSTEM CO.,723424,KRYIN YONG-IN WAREHOUSE,NARACT Teys Aust - Naracoorte,NARACT Teys Aust - Naracoorte,KRYIN YONG-IN WAREHOUSE,HEADOF Teys Australia Pty Ltd
BIGSEOUL FOOD SYSTEM CO.,723425,KRYIN YONG-IN WAREHOUSE,INNISF Teys Australia Pty Ltd,INNISF Teys Australia Pty Ltd,KRYIN YONG-IN WAREHOUSE,HEADOF Teys Australia Pty Ltd
BIGSEOUL FOOD SYSTEM CO.,723426,KRYIN YONG-IN WAREHOUSE,ROCKON Teys Aust - Rockhampton,ROCKON Teys Aust - Rockhampton,KRYIN YONG-IN WAREHOUSE,HEADOF Teys Australia Pty Ltd
ANZ EXPORTS PTY LTD,600475,"IDJKT JAKARTA, JAVA",BILOEL Teys Aust - Biloela,BILOEL Teys Aust - Biloela,"IDJKT JAKARTA, JAVA",HEADOF Teys Australia Pty Ltd
ANZ EXPORTS PTY LTD,600476,IDTPP TANJUNG PRIOK,NARACT Teys Aust - Naracoorte,NARACT Teys Aust - Naracoorte,IDTPP TANJUNG PRIOK,HEADOF Teys Australia Pty Ltd
ANZ EXPORTS PTY LTD,600477,"IDJKT JAKARTA, JAVA",LAGOCS Teys Aust - Distribution,LAGSTO Teys at Lago Storage Age,"IDJKT JAKARTA, JAVA",HEADOF Teys Australia Pty Ltd
ANZ EXPORTS PTY LTD,600478,IDTPP TANJUNG PRIOK,BEENLH Teys Aust - Beenleigh,BEENLH Teys Aust - Beenleigh,IDTPP TANJUNG PRIOK,HEADOF Teys Australia Pty Ltd
GVFI INTERNATIONAL LTD,700675,CHZRH ZURICH,NARACT Teys Aust - Naracoorte,NARACT Teys Aust - Naracoorte,CHZRH ZURICH,HEADOF Teys Australia Pty Ltd
GVFI INTERNATIONAL LTD,700676,CHZRH ZURICH,BEENLH Teys Aust - Beenleigh,BEENLH Teys Aust - Beenleigh,CHZRH ZURICH,BEEN Teys Australia Beenleigh
GVFI INTERNATIONAL LTD,700677,CHZRH ZURICH,ROCKON Teys Aust - Rockhampton,ROCKON Teys Aust - Rockhampton,CHZRH ZURICH,HEADOF Teys Australia Pty Ltd
GVFI INTERNATIONAL LTD,700678,CHZRH ZURICH,BILOEL Teys Aust - Biloela,BILOEL Teys Aust - Biloela,CHZRH ZURICH,HEADOF Teys Australia Pty Ltd
GVFI INTERNATIONAL LTD,700679,CHZRH ZURICH,WAGGAW Teys Aust - Wagga,WAGGAW Teys Aust - Wagga,CHZRH ZURICH,HEADOF Teys Australia Pty Ltd
FOOD PARTNERS LTD,714010,NZAKL AUCKLAND,WAGGAW Teys Aust - Wagga,WAGGAW Teys Aust - Wagga,NZAKL AUCKLAND,HEADOF Teys Australia Pty Ltd
"SEOWON DISTRIBUTION CO., LTD",601416,KRYIN YONG-IN WAREHOUSE,BEENLH Teys Aust - Beenleigh,BEENLH Teys Aust - Beenleigh,KRYIN YONG-IN WAREHOUSE,HEADOF Teys Australia Pty Ltd
"SEOWON DISTRIBUTION CO., LTD",601417,KRYIN YONG-IN WAREHOUSE,ROCKON Teys Aust - Rockhampton,ROCKON Teys Aust - Rockhampton,KRYIN YONG-IN WAREHOUSE,HEADOF Teys Australia Pty Ltd
"SEOWON DISTRIBUTION CO., LTD",601418,KRYIN YONG-IN WAREHOUSE,NARACT Teys Aust - Naracoorte,NARACT Teys Aust - Naracoorte,KRYIN YONG-IN WAREHOUSE,HEADOF Teys Australia Pty Ltd
"SEOWON DISTRIBUTION CO., LTD",601419,KRYIN YONG-IN WAREHOUSE,BILOEL Teys Aust - Biloela,BILOEL Teys Aust - Biloela,KRYIN YONG-IN WAREHOUSE,HEADOF Teys Australia Pty Ltd
"SEOWON DISTRIBUTION CO., LTD",601420,KRYIN YONG-IN WAREHOUSE,WAGGAW Teys Aust - Wagga,WAGGAW Teys Aust - Wagga,KRYIN YONG-IN WAREHOUSE,HEADOF Teys Australia Pty Ltd
"SEOWON DISTRIBUTION CO., LTD",601421,KRYIN YONG-IN WAREHOUSE,LAGOCS Teys Aust - Distribution,LAGSTO Teys at Lago Storage Age,KRYIN YONG-IN WAREHOUSE,HEADOF Teys Australia Pty Ltd
"SEOWON DISTRIBUTION CO., LTD",601422,KRYIN YONG-IN WAREHOUSE,TAMWTH Teys Aust - Tamworth,TAMWTH Teys Aust - Tamworth,KRYIN YONG-IN WAREHOUSE,HEADOF Teys Australia Pty Ltd
SHINSEGAE FOOD INC,601783,KRBUS BUSAN,NARACT Teys Aust - Naracoorte,NARACT Teys Aust - Naracoorte,KRBUS BUSAN,HEADOF Teys Australia Pty Ltd
SHINSEGAE FOOD INC,601784,KRBUS BUSAN,BILOEL Teys Aust - Biloela,BILOEL Teys Aust - Biloela,KRBUS BUSAN,HEADOF Teys Australia Pty Ltd
SHINSEGAE FOOD INC,601785,KRBUS BUSAN,WAGGAW Teys Aust - Wagga,WAGGAW Teys Aust - Wagga,KRBUS BUSAN,HEADOF Teys Australia Pty Ltd
SHINSEGAE FOOD INC,601786,KRBUS BUSAN,ROCKON Teys Aust - Rockhampton,ROCKON Teys Aust - Rockhampton,KRBUS BUSAN,HEADOF Teys Australia Pty Ltd
SHINSEGAE FOOD INC,601787,KRBUS BUSAN,LAGOCS Teys Aust - Distribution,LAGSTO Teys at Lago Storage Age,KRBUS BUSAN,HEADOF Teys Australia Pty Ltd
SHINSEGAE FOOD INC,601788,KRBUS BUSAN,INNISF Teys Australia Pty Ltd,INNISF Teys Australia Pty Ltd,KRBUS BUSAN,HEADOF Teys Australia Pty Ltd
SHINSEGAE FOOD INC,601789,KRBUS BUSAN,BEENLH Teys Aust - Beenleigh,BEENLH Teys Aust - Beenleigh,KRBUS BUSAN,HEADOF Teys Australia Pty Ltd
"HAE SUNG PROVISION CO., LTD",601352,KRINC INCHEON AIR PORT,WAGGAW Teys Aust - Wagga,WAGGAW Teys Aust - Wagga,KRINC INCHEON AIR PORT,HEADOF Teys Australia Pty Ltd
"HAE SUNG PROVISION CO., LTD",601353,KRYIN YONG-IN WAREHOUSE,LAGOCS Teys Aust - Distribution,LAGSTO Teys at Lago Storage Age,KRYIN YONG-IN WAREHOUSE,HEADOF Teys Australia Pty Ltd
"HAE SUNG PROVISION CO., LTD",601354,KRICH I-CHEON WAREHOUSE,ROCKON Teys Aust - Rockhampton,ROCKON Teys Aust - Rockhampton,KRICH I-CHEON WAREHOUSE,HEADOF Teys Australia Pty Ltd
"HAE SUNG PROVISION CO., LTD",601355,KRGWH GWANGJU WAREHOUSE,TAMWTH Teys Aust - Tamworth,TAMWTH Teys Aust - Tamworth,KRGWH GWANGJU WAREHOUSE,HEADOF Teys Australia Pty Ltd
"HAE SUNG PROVISION CO., LTD",601356,KRINC INCHEON AIR PORT,BEENLH Teys Aust - Beenleigh,BEENLH Teys Aust - Beenleigh,KRINC INCHEON AIR PORT,HEADOF Teys Australia Pty Ltd
"HAE SUNG PROVISION CO., LTD",601357,KRYIN YONG-IN WAREHOUSE,NARACT Teys Aust - Naracoorte,NARACT Teys Aust - Naracoorte,KRYIN YONG-IN WAREHOUSE,HEADOF Teys Australia Pty Ltd
"HAE SUNG PROVISION CO., LTD",601358,KRICH I-CHEON WAREHOUSE,INNISF Teys Australia Pty Ltd,INNISF Teys Australia Pty Ltd,KRICH I-CHEON WAREHOUSE,HEADOF Teys Australia Pty Ltd
GREEN HILL MEAT COMMERCE CO LTD,601417,KRBWH BUSAN WAREHOUSE,BEENLH Teys Aust - Beenleigh,BEENLH Teys Aust - Beenleigh,KRBWH BUSAN WAREHOUSE,HEADOF Teys Australia Pty Ltd
GREEN HILL MEAT COMMERCE CO LTD,601418,KRBWH BUSAN WAREHOUSE,BILOEL Teys Aust - Biloela,BILOEL Teys Aust - Biloela,KRBWH BUSAN WAREHOUSE,HEADOF Teys Australia Pty Ltd
GREEN HILL MEAT COMMERCE CO LTD,601419,KRBWH BUSAN WAREHOUSE,ROCKON Teys Aust - Rockhampton,ROCKON Teys Aust - Rockhampton,KRBWH BUSAN WAREHOUSE,HEADOF Teys Australia Pty Ltd
GREEN HILL MEAT COMMERCE CO LTD,601420,KRBWH BUSAN WAREHOUSE,NARACT Teys Aust - Naracoorte,NARACT Teys Aust - Naracoorte,KRBWH BUSAN WAREHOUSE,HEADOF Teys Australia Pty Ltd
"ZENSHO TRADINGS CO., LTD.",723776,JPYOK YOKOHAMA,LAGOCS Teys Aust - Distribution,LAGSTO Teys at Lago Storage Age,JPYOK YOKOHAMA,HEADOF Teys Australia Pty Ltd
"ZENSHO TRADINGS CO., LTD.",723777,JPHAK HAKATA,WAGGAW Teys Aust - Wagga,WAGGAW Teys Aust - Wagga,JPHAK HAKATA,HEADOF Teys Australia Pty Ltd
"ZENSHO TRADINGS CO., LTD.",723778,CNYTG YANTAI,NARACT Teys Aust - Naracoorte,NARACT Teys Aust - Naracoorte,CNYTG YANTAI,HEADOF Teys Australia Pty Ltd
"ZENSHO TRADINGS CO., LTD.",723779,JPYOK YOKOHAMA,BEENLH Teys Aust - Beenleigh,BEENLH Teys Aust - Beenleigh,JPYOK YOKOHAMA,HEADOF Teys Australia Pty Ltd
"ZENSHO TRADINGS CO., LTD.",723780,JPHAK HAKATA,BILOEL Teys Aust - Biloela,BILOEL Teys Aust - Biloela,JPHAK HAKATA,HEADOF Teys Australia Pty Ltd
"ZENSHO TRADINGS CO., LTD.",723781,CNYTG YANTAI,ROCKON Teys Aust - Rockhampton,ROCKON Teys Aust - Rockhampton,CNYTG YANTAI,HEADOF Teys Australia Pty Ltd
"ZENSHO TRADINGS CO., LTD.",723782,JPYOK YOKOHAMA,TAMWTH Teys Aust - Tamworth,TAMWTH Teys Aust - Tamworth,JPYOK YOKOHAMA,HEADOF Teys Australia Pty Ltd
"ZENSHO TRADINGS CO., LTD.",723783,JPHAK HAKATA,INNISF Teys Australia Pty Ltd,INNISF Teys Australia Pty Ltd,JPHAK HAKATA,HEADOF Teys Australia Pty Ltd
KATEFORD INTERNATIONAL LTD,704067,HKHKG HONG KONG,ROCKON Teys Aust - Rockhampton,ROCKON Teys Aust - Rockhampton,HKHKG HONG KONG,HEADOF Teys Australia Pty Ltd
CRYSTAL FARMS CO.LTD,704902,KRICH I-CHEON WAREHOUSE,WAGGAW Teys Aust - Wagga,WAGGAW Teys Aust - Wagga,KRICH I-CHEON WAREHOUSE,HEADOF Teys Australia Pty Ltd
CHEONG HING COMPANY,600303,HKHKG HONG KONG,WAGGAW Teys Aust - Wagga,WAGGAW Teys Aust - Wagga,HKHKG HONG KONG,HEADOF Teys Australia Pty Ltd
CHEONG HING COMPANY,600304,HKHKG HONG KONG,ROCKON Teys Aust - Rockhampton,ROCKON Teys Aust - Rockhampton,HKHKG HONG KONG,HEADOF Teys Australia Pty Ltd
CHEONG HING COMPANY,600305,HKHKG HONG KONG,BEENLH Teys Aust - Beenleigh,BEENLH Teys Aust - Beenleigh,HKHKG HONG KONG,HEADOF Teys Australia Pty Ltd
CHEONG HING COMPANY,600306,HKHKG HONG KONG,LAGOCS Teys Aust - Distribution,LAGSTO Teys at Lago Storage Age,HKHKG HONG KONG,HEADOF Teys Australia Pty Ltd
CHEONG HING COMPANY,600307,HKHKG HONG KONG,TAMWTH Teys Aust - Tamworth,TAMWTH Teys Aust - Tamworth,HKHKG HONG KONG,HEADOF Teys Australia Pty Ltd
PT INDO MANDIRI SEJAHTERA,720613,"IDJKT JAKARTA, JAVA",BILOEL Teys Aust - Biloela,BILOEL Teys Aust - Biloela,"IDJKT JAKARTA, JAVA",HEADOF Teys Australia Pty Ltd
PT INDO MANDIRI SEJAHTERA,720614,"IDJKT JAKARTA, JAVA",BEENLH Teys Aust - Beenleigh,BEENLH Teys Aust - Beenleigh,"IDJKT JAKARTA, JAVA",HEADOF Teys Australia Pty Ltd
PT INDO MANDIRI SEJAHTERA,720615,"IDJKT JAKARTA, JAVA",LAGOCS Teys Aust - Distribution,LAGSTO Teys at Lago Storage Age,"IDJKT JAKARTA, JAVA",HEADOF Teys Australia Pty Ltd
PT INDO MANDIRI SEJAHTERA,720616,"IDJKT JAKARTA, JAVA",INNISF Teys Australia Pty Ltd,INNISF Teys Australia Pty Ltd,"IDJKT JAKARTA, JAVA",HEADOF Teys Australia Pty Ltd
PT INDO MANDIRI SEJAHTERA,720617,"IDJKT JAKARTA, JAVA",NARACT Teys Aust - Naracoorte,NARACT Teys Aust - Naracoorte,"IDJKT JAKARTA, JAVA",HEADOF Teys Australia Pty Ltd
PARKER-MIGLIORINI INTERNATIONAL GMBH,712599,HKHKG HONG KONG,TAMWTH Teys Aust - Tamworth,TAMWTH Teys Aust - Tamworth,HKHKG HONG KONG,HEADOF Teys Australia Pty Ltd
PARKER-MIGLIORINI INTERNATIONAL GMBH,712600,BRPNG PARANAGUA,NARACT Teys Aust - Naracoorte,NARACT Teys Aust - Naracoorte,BRPNG PARANAGUA,HEADOF Teys Australia Pty Ltd
PARKER-MIGLIORINI INTERNATIONAL GMBH,712601,HKHKG HONG KONG,WAGGAW Teys Aust - Wagga,WAGGAW Teys Aust - Wagga,HKHKG HONG KONG,HEADOF Teys Australia Pty Ltd
PARKER-MIGLIORINI INTERNATIONAL GMBH,712602,BRPNG PARANAGUA,ROCKON Teys Aust - Rockhampton,ROCKON Teys Aust - Rockhampton,BRPNG PARANAGUA,HEADOF Teys Australia Pty Ltd
PARKER-MIGLIORINI INTERNATIONAL GMBH,712603,HKHKG HONG KONG,LAGOCS Teys Aust - Distribution,LAGSTO Teys at Lago Storage Age,HKHKG HONG KONG,HEADOF Teys Australia Pty Ltd
PARKER-MIGLIORINI INTERNATIONAL GMBH,712604,BRPNG PARANAGUA,INNISF Teys Australia Pty Ltd,INNISF Teys Australia Pty Ltd,BRPNG PARANAGUA,HEADOF Teys Australia Pty Ltd
PARKER-MIGLIORINI INTERNATIONAL GMBH,712605,HKHKG HONG KONG,BILOEL Teys Aust - Biloela,BILOEL Teys Aust - Biloela,HKHKG HONG KONG,HEADOF Teys Australia Pty Ltd
PD DHARMA JAYA,722232,"IDJKT JAKARTA, JAVA",BILOEL Teys Aust - Biloela,BILOEL Teys Aust - Biloela,"IDJKT JAKARTA, JAVA",HEADOF Teys Australia Pty Ltd
PD DHARMA JAYA,722233,"IDJKT JAKARTA, JAVA",NARACT Teys Aust - Naracoorte,NARACT Teys Aust - Naracoorte,"IDJKT JAKARTA, JAVA",HEADOF Teys Australia Pty Ltd
PD DHARMA JAYA,722234,"IDJKT JAKARTA, JAVA",BEENLH Teys Aust - Beenleigh,BEENLH Teys Aust - Beenleigh,"IDJKT JAKARTA, JAVA",HEADOF Teys Australia Pty Ltd
PD DHARMA JAYA,722235,"IDJKT JAKARTA, JAVA",LAGOCS Teys Aust - Distribution,LAGSTO Teys at Lago Storage Age,"IDJKT JAKARTA, JAVA",HEADOF Teys Australia Pty Ltd
ALLURE GRACIA PTE LTD,724036,"IDJKT JAKARTA, JAVA",LAGOCS Teys Aust - Distribution,LAGSTO Teys at Lago Storage Age,"IDJKT JAKARTA, JAVA",HEADOF Teys Australia Pty Ltd
ALLURE GRACIA PTE LTD,724037,"IDJKT JAKARTA, JAVA",NARACT Teys Aust - Naracoorte,NARACT Teys Aust - Naracoorte,"IDJKT JAKARTA, JAVA",HEADOF Teys Australia Pty Ltd
ALLURE GRACIA PTE LTD,724038,"IDJKT JAKARTA, JAVA",BEENLH Teys Aust - Beenleigh,BEENLH Teys Aust - Beenleigh,"IDJKT JAKARTA, JAVA",HEADOF Teys Australia Pty Ltd
ALLURE GRACIA PTE LTD,724039,"IDJKT JAKARTA, JAVA",BILOEL Teys Aust - Biloela,BILOEL Teys Aust - Biloela,"IDJKT JAKARTA, JAVA",HEADOF Teys Australia Pty Ltd
AKATSUKAYA CO LTD,600070,JPYOK YOKOHAMA,BEENLH Teys Aust - Beenleigh,BEENLH Teys Aust - Beenleigh,JPYOK YOKOHAMA,HEADOF Teys Australia Pty Ltd
KOREA TOURIST SUPPLY CENTER INC.,601418,KRGWH GWANGJU WAREHOUSE,WAGGAW Teys Aust - Wagga,WAGGAW Teys Aust - Wagga,KRGWH GWANGJU WAREHOUSE,HEADOF Teys Australia Pty Ltd
KOREA TOURIST SUPPLY CENTER INC.,601419,KRINC INCHEON AIR PORT,WAGGAW Teys Aust - Wagga,WAGGAW Teys Aust - Wagga,KRINC INCHEON AIR PORT,HEADOF Teys Australia Pty Ltd
HAN GYUL LS COMPANY LIMITED,601275,KRICH I-CHEON WAREHOUSE,NARACT Teys Aust - Naracoorte,NARACT Teys Aust - Naracoorte,KRICH I-CHEON WAREHOUSE,HEADOF Teys Australia Pty Ltd
HAN GYUL LS COMPANY LIMITED,601276,KRINC INCHEON AIR PORT,WAGGAW Teys Aust - Wagga,WAGGAW Teys Aust - Wagga,KRINC INCHEON AIR PORT,HEADOF Teys Australia Pty Ltd
HAN GYUL LS COMPANY LIMITED,601277,KRGWH GWANGJU WAREHOUSE,BEENLH Teys Aust - Beenleigh,BEENLH Teys Aust - Beenleigh,KRGWH GWANGJU WAREHOUSE,HEADOF Teys Australia Pty Ltd
HAN GYUL LS COMPANY LIMITED,601278,KRICH I-CHEON WAREHOUSE,ROCKON Teys Aust - Rockhampton,ROCKON Teys Aust - Rockhampton,KRICH I-CHEON WAREHOUSE,HEADOF Teys Australia Pty Ltd
FISCO CO LTD,706850,JPYOK YOKOHAMA,WAGGAW Teys Aust - Wagga,WAGGAW Teys Aust - Wagga,JPYOK YOKOHAMA,HEADOF Teys Australia Pty Ltd
PT SURI NUSANTARA JAYA,724101,"IDJKT JAKARTA, JAVA",BILOEL Teys Aust - Biloela,BILOEL Teys Aust - Biloela,"IDJKT JAKARTA, JAVA",HEADOF Teys Australia Pty Ltd
PT SURI NUSANTARA JAYA,724102,"IDJKT JAKARTA, JAVA",LAGOCS Teys Aust - Distribution,LAGSTO Teys at Lago Storage Age,"IDJKT JAKARTA, JAVA",HEADOF Teys Australia Pty Ltd
PT SURI NUSANTARA JAYA,724103,"IDJKT JAKARTA, JAVA",BEENLH Teys Aust - Beenleigh,BEENLH Teys Aust - Beenleigh,"IDJKT JAKARTA, JAVA",HEADOF Teys Australia Pty Ltd
PT SURI NUSANTARA JAYA,724104,"IDJKT JAKARTA, JAVA",INNISF Teys Australia Pty Ltd,INNISF Teys Australia Pty Ltd,"IDJKT JAKARTA, JAVA",HEADOF Teys Australia Pty Ltd
PT SURI NUSANTARA JAYA,724105,"IDJKT JAKARTA, JAVA",NARACT Teys Aust - Naracoorte,NARACT Teys Aust - Naracoorte,"IDJKT JAKARTA, JAVA",HEADOF Teys Australia Pty Ltd
ZHEJIANG FUBANG GROUP CO. LTD,700040,CNZPU ZHAPU,MURGON Teys Aust - Murgon,MURGON Teys Aust - Murgon,CNZPU ZHAPU,HEADOF Teys Australia Pty Ltd
"MARBLE PLUS ONE CO., LTD",706436,KRGWH GWANGJU WAREHOUSE,BEENLH Teys Aust - Beenleigh,BEENLH Teys Aust - Beenleigh,KRGWH GWANGJU WAREHOUSE,HEADOF Teys Australia Pty Ltd
"MARBLE PLUS ONE CO., LTD",706437,KRGWH GWANGJU WAREHOUSE,ROCKON Teys Aust - Rockhampton,ROCKON Teys Aust - Rockhampton,KRGWH GWANGJU WAREHOUSE,HEADOF Teys Australia Pty Ltd
"MARBLE PLUS ONE CO., LTD",706438,KRGWH GWANGJU WAREHOUSE,NARACT Teys Aust - Naracoorte,NARACT Teys Aust - Naracoorte,KRGWH GWANGJU WAREHOUSE,HEADOF Teys Australia Pty Ltd
"MARBLE PLUS ONE CO., LTD",706439,KRGWH GWANGJU WAREHOUSE,LAGOCS Teys Aust - Distribution,LAGSTO Teys at Lago Storage Age,KRGWH GWANGJU WAREHOUSE,HEADOF Teys Australia Pty Ltd
"MARBLE PLUS ONE CO., LTD",706440,KRGWH GWANGJU WAREHOUSE,BILOEL Teys Aust - Biloela,BILOEL Teys Aust - Biloela,KRGWH GWANGJU WAREHOUSE,HEADOF Teys Australia Pty Ltd
SHAMA INTERNATIONAL FOR GENERAL,704092,KWSWK SHUWAIKH,BEENLH Teys Aust - Beenleigh,BEENLH Teys Aust - Beenleigh,KWSWK SHUWAIKH,HEADOF Teys Australia Pty Ltd
SHAMA INTERNATIONAL FOR GENERAL,704093,KWSWK SHUWAIKH,NARACT Teys Aust - Naracoorte,NARACT Teys Aust - Naracoorte,KWSWK SHUWAIKH,HEADOF Teys Australia Pty Ltd
SHAMA INTERNATIONAL FOR GENERAL,704094,KWSWK SHUWAIKH,LAGOCS Teys Aust - Distribution,LAGSTO Teys at Lago Storage Age,KWSWK SHUWAIKH,HEADOF Teys Australia Pty Ltd
FARMLAND INDUSTRIES LTD,600326,NZAKL AUCKLAND,LAGOCS Teys Aust - Distribution,LAGSTO Teys at Lago Storage Age,NZAKL AUCKLAND,HEADOF Teys Australia Pty Ltd
FARMLAND INDUSTRIES LTD,600327,ZADUR DURBAN,BEENLH Teys Aust - Beenleigh,BEENLH Teys Aust - Beenleigh,ZADUR DURBAN,HEADOF Teys Australia Pty Ltd
FARMLAND INDUSTRIES LTD,600328,NZAKL AUCKLAND,ROCKON Teys Aust - Rockhampton,ROCKON Teys Aust - Rockhampton,NZAKL AUCKLAND,HEADOF Teys Australia Pty Ltd
FARMLAND INDUSTRIES LTD,600329,ZADUR DURBAN,BILOEL Teys Aust - Biloela,BILOEL Teys Aust - Biloela,ZADUR DURBAN,HEADOF Teys Australia Pty Ltd
FARMLAND INDUSTRIES LTD,600330,NZAKL AUCKLAND,INNISF Teys Australia Pty Ltd,INNISF Teys Australia Pty Ltd,NZAKL AUCKLAND,HEADOF Teys Australia Pty Ltd
FARMLAND INDUSTRIES LTD,600331,ZADUR DURBAN,WAGGAW Teys Aust - Wagga,WAGGAW Teys Aust - Wagga,ZADUR DURBAN,HEADOF Teys Australia Pty Ltd
CV. CAHAYA KARYA INDAH,702952,"IDJKT JAKARTA, JAVA",NARACT Teys Aust - Naracoorte,NARACT Teys Aust - Naracoorte,"IDJKT JAKARTA, JAVA",HEADOF Teys Australia Pty Ltd
CV. CAHAYA KARYA INDAH,702953,"IDJKT JAKARTA, JAVA",LAGOCS Teys Aust - Distribution,LAGSTO Teys at Lago Storage Age,"IDJKT JAKARTA, JAVA",HEADOF Teys Australia Pty Ltd
CV. CAHAYA KARYA INDAH,702954,"IDJKT JAKARTA, JAVA",BEENLH Teys Aust - Beenleigh,BEENLH Teys Aust - Beenleigh,"IDJKT JAKARTA, JAVA",HEADOF Teys Australia Pty Ltd
CV. CAHAYA KARYA INDAH,702955,"IDJKT JAKARTA, JAVA",BILOEL Teys Aust - Biloela,BILOEL Teys Aust - Biloela,"IDJKT JAKARTA, JAVA",HEADOF Teys Australia Pty Ltd
MEATHOUSE IMPEX LLC,703981,AESHJ SHARJAH,BILOEL Teys Aust - Biloela,BILOEL Teys Aust - Biloela,AESHJ SHARJAH,HEADOF Teys Australia Pty Ltd
MEATHOUSE IMPEX LLC,703982,AEDXB DUBAI,NARACT Teys Aust - Naracoorte,NARACT Teys Aust - Naracoorte,AEDXB DUBAI,NARA Teys Australia Naracoorte
MEATHOUSE IMPEX LLC,703983,AEJEA JEBEL ALI,BEENLH Teys Aust - Beenleigh,BEENLH Teys Aust - Beenleigh,AEJEA JEBEL ALI,HEADOF Teys Australia Pty Ltd
"WELCOME FOOD CO., LTD",705535,TWKEL KEELUNG,NARACT Teys Aust - Naracoorte,NARACT Teys Aust - Naracoorte,TWKEL KEELUNG,HEADOF Teys Australia Pty Ltd
"WELCOME FOOD CO., LTD",705536,TWKEL KEELUNG,LAGOCS Teys Aust - Distribution,LAGSTO Teys at Lago Storage Age,TWKEL KEELUNG,HEADOF Teys Australia Pty Ltd
HANA PRIME INC.,601419,KRYIN YONG-IN WAREHOUSE,BEENLH Teys Aust - Beenleigh,BEENLH Teys Aust - Beenleigh,KRYIN YONG-IN WAREHOUSE,HEADOF Teys Australia Pty Ltd
HANA PRIME INC.,601420,KRYIN YONG-IN WAREHOUSE,NARACT Teys Aust - Naracoorte,NARACT Teys Aust - Naracoorte,KRYIN YONG-IN WAREHOUSE,HEADOF Teys Australia Pty Ltd
HANA PRIME INC.,601421,KRYIN YONG-IN WAREHOUSE,WAGGAW Teys Aust - Wagga,WAGGAW Teys Aust - Wagga,KRYIN YONG-IN WAREHOUSE,HEADOF Teys Australia Pty Ltd
HANA PRIME INC.,601422,KRYIN YONG-IN WAREHOUSE,ROCKON Teys Aust - Rockhampton,ROCKON Teys Aust - Rockhampton,KRYIN YONG-IN WAREHOUSE,HEADOF Teys Australia Pty Ltd
ELFAB CO. L.L.C.,719841,AEJEA JEBEL ALI,BEENLH Teys Aust - Beenleigh,BEENLH Teys Aust - Beenleigh,AEJEA JEBEL ALI,HEADOF Teys Australia Pty Ltd
ELFAB CO. L.L.C.,719842,AEDXB DUBAI,NARACT Teys Aust - Naracoorte,NARACT Teys Aust - Naracoorte,AEDXB DUBAI,HEADOF Teys Australia Pty Ltd
SIAM FOOD SERVICES LTD,718020,THBKK BANGKOK,LAGOCS Teys Aust - Distribution,LAGSTO Teys at Lago Storage Age,THBKK BANGKOK,HEADOF Teys Australia Pty Ltd
SIAM FOOD SERVICES LTD,718021,THBKK BANGKOK,WAGGAW Teys Aust - Wagga,WAGGAW Teys Aust - Wagga,THBKK BANGKOK,HEADOF Teys Australia Pty Ltd
SIAM FOOD SERVICES LTD,718022,THBKK BANGKOK,NARACT Teys Aust - Naracoorte,NARACT Teys Aust - Naracoorte,THBKK BANGKOK,HEADOF Teys Australia Pty Ltd
SIAM FOOD SERVICES LTD,718023,THBKK BANGKOK,BILOEL Teys Aust - Biloela,BILOEL Teys Aust - Biloela,THBKK BANGKOK,HEADOF Teys Australia Pty Ltd
SIAM FOOD SERVICES LTD,718024,THBKK BANGKOK,INNISF Teys Australia Pty Ltd,INNISF Teys Australia Pty Ltd,THBKK BANGKOK,HEADOF Teys Australia Pty Ltd
SIAM FOOD SERVICES LTD,718025,THBKK BANGKOK,ROCKON Teys Aust - Rockhampton,ROCKON Teys Aust - Rockhampton,THBKK BANGKOK,HEADOF Teys Australia Pty Ltd
LIAN SHIN FOOD CO LTD,721359,TWKHH KAOHSIUNG,LAGOCS Teys Aust - Distribution,LAGSTO Teys at Lago Storage Age,TWKHH KAOHSIUNG,HEADOF Teys Australia Pty Ltd
LIAN SHIN FOOD CO LTD,721360,TWKHH KAOHSIUNG,WAGGAW Teys Aust - Wagga,WAGGAW Teys Aust - Wagga,TWKHH KAOHSIUNG,HEADOF Teys Australia Pty Ltd
Fayman International Pty Ltd,600614,AUBNE BRISBANE,BEENLH Teys Aust - Beenleigh,BEENLH Teys Aust - Beenleigh,AUBNE BRISBANE,HEADOF Teys Australia Pty Ltd
Fayman International Pty Ltd,600615,AUMEL MELBOURNE,NARACT Teys Aust - Naracoorte,NARACT Teys Aust - Naracoorte,AUMEL MELBOURNE,HEADOF Teys Australia Pty Ltd
Fayman International Pty Ltd,600616,AEAUH ABU DHABI,WAGGAW Teys Aust - Wagga,WAGGAW Teys Aust - Wagga,AEAUH ABU DHABI,HEADOF Teys Australia Pty Ltd
CARGILL LIMITED,706756,CATOR TORONTO,BEENLH Teys Aust - Beenleigh,BEENLH Teys Aust - Beenleigh,CATOR TORONTO,HEADOF Teys Australia Pty Ltd
CARGILL LIMITED,706757,CATOR TORONTO,BILOEL Teys Aust - Biloela,BILOEL Teys Aust - Biloela,CATOR TORONTO,HEADOF Teys Australia Pty Ltd
CARGILL LIMITED,706758,CATOR TORONTO,NARACT Teys Aust - Naracoorte,NARACT Teys Aust - Naracoorte,CATOR TORONTO,HEADOF Teys Australia Pty Ltd
CARGILL LIMITED,706759,CATOR TORONTO,ROCKON Teys Aust - Rockhampton,ROCKON Teys Aust - Rockhampton,CATOR TORONTO,HEADOF Teys Australia Pty Ltd
CARGILL LIMITED,706760,CATOR TORONTO,LAGOCS Teys Aust - Distribution,LAGSTO Teys at Lago Storage Age,CATOR TORONTO,HEADOF Teys Australia Pty Ltd
CARGILL LIMITED,706761,CATOR TORONTO,WAGGAW Teys Aust - Wagga,WAGGAW Teys Aust - Wagga,CATOR TORONTO,HEADOF Teys Australia Pty Ltd
RONALD A CHISHOLM LTD,600566,CAVAN VANCOUVER,WAGGAW Teys Aust - Wagga,WAGGAW Teys Aust - Wagga,CAVAN VANCOUVER,HEADOF Teys Australia Pty Ltd
RONALD A CHISHOLM LTD,600567,CATOR TORONTO,LAGOCS Teys Aust - Distribution,LAGSTO Teys at Lago Storage Age,CATOR TORONTO,HEADOF Teys Australia Pty Ltd
RONALD A CHISHOLM LTD,600568,CAMTR MONTREAL,BILOEL Teys Aust - Biloela,BILOEL Teys Aust - Biloela,CAMTR MONTREAL,HEADOF Teys Australia Pty Ltd
RONALD A CHISHOLM LTD,600569,CAVAN VANCOUVER,ROCKON Teys Aust - Rockhampton,ROCKON Teys Aust - Rockhampton,CAVAN VANCOUVER,HEADOF Teys Australia Pty Ltd
RONALD A CHISHOLM LTD,600570,CATOR TORONTO,NARACT Teys Aust - Naracoorte,NARACT Teys Aust - Naracoorte,CATOR TORONTO,HEADOF Teys Australia Pty Ltd
INDOGUNA VINA FOOD SERVICE COMPANY LIMITED,716344,VNSGN HO CHI MINH CITY,NARACT Teys Aust - Naracoorte,NARACT Teys Aust - Naracoorte,VNSGN HO CHI MINH CITY,HEADOF Teys Australia Pty Ltd
INDOGUNA VINA FOOD SERVICE COMPANY LIMITED,716345,VNSGN HO CHI MINH CITY,BEENLH Teys Aust - Beenleigh,BEENLH Teys Aust - Beenleigh,VNSGN HO CHI MINH CITY,HEADOF Teys Australia Pty Ltd
INDOGUNA VINA FOOD SERVICE COMPANY LIMITED,716346,VNSGN HO CHI MINH CITY,LAGOCS Teys Aust - Distribution,LAGSTO Teys at Lago Storage Age,VNSGN HO CHI MINH CITY,HEADOF Teys Australia Pty Ltd
INDOGUNA VINA FOOD SERVICE COMPANY LIMITED,716347,VNSGN HO CHI MINH CITY,BILOEL Teys Aust - Biloela,BILOEL Teys Aust - Biloela,VNSGN HO CHI MINH CITY,HEADOF Teys Australia Pty Ltd
PT.ESTIKA TATA TIARA,722564,"IDJKT JAKARTA, JAVA",NARACT Teys Aust - Naracoorte,NARACT Teys Aust - Naracoorte,"IDJKT JAKARTA, JAVA",HEADOF Teys Australia Pty Ltd
PT.ESTIKA TATA TIARA,722565,"IDJKT JAKARTA, JAVA",BEENLH Teys Aust - Beenleigh,BEENLH Teys Aust - Beenleigh,"IDJKT JAKARTA, JAVA",HEADOF Teys Australia Pty Ltd
PT.ESTIKA TATA TIARA,722566,"IDJKT JAKARTA, JAVA",LAGOCS Teys Aust - Distribution,LAGSTO Teys at Lago Storage Age,"IDJKT JAKARTA, JAVA",HEADOF Teys Australia Pty Ltd
PT.ESTIKA TATA TIARA,722567,"IDJKT JAKARTA, JAVA",BILOEL Teys Aust - Biloela,BILOEL Teys Aust - Biloela,"IDJKT JAKARTA, JAVA",HEADOF Teys Australia Pty Ltd
PT.ESTIKA TATA TIARA,722568,"IDJKT JAKARTA, JAVA",INNISF Teys Australia Pty Ltd,INNISF Teys Australia Pty Ltd,"IDJKT JAKARTA, JAVA",HEADOF Teys Australia Pty Ltd
CV LIBRA FOOD SERVICE,715951,"IDJKT JAKARTA, JAVA",BILOEL Teys Aust - Biloela,BILOEL Teys Aust - Biloela,"IDJKT JAKARTA, JAVA",HEADOF Teys Australia Pty Ltd
IBC CORPORATION,713515,JPYOK YOKOHAMA,ROCKON Teys Aust - Rockhampton,ROCKON Teys Aust - Rockhampton,JPYOK YOKOHAMA,HEADOF Teys Australia Pty Ltd
IBC CORPORATION,713516,JPYOK YOKOHAMA,BEENLH Teys Aust - Beenleigh,BEENLH Teys Aust - Beenleigh,JPYOK YOKOHAMA,HEADOF Teys Australia Pty Ltd
IBC CORPORATION,713517,JPYOK YOKOHAMA,LAGOCS Teys Aust - Distribution,LAGSTO Teys at Lago Storage Age,JPYOK YOKOHAMA,HEADOF Teys Australia Pty Ltd
IBC CORPORATION,713518,JPYOK YOKOHAMA,NARACT Teys Aust - Naracoorte,NARACT Teys Aust - Naracoorte,JPYOK YOKOHAMA,HEADOF Teys Australia Pty Ltd
IBC CORPORATION,713519,JPYOK YOKOHAMA,TAMWTH Teys Aust - Tamworth,TAMWTH Teys Aust - Tamworth,JPYOK YOKOHAMA,HEADOF Teys Australia Pty Ltd
IBC CORPORATION,713520,JPYOK YOKOHAMA,BEENLH Teys Aust - Beenleigh,BEENLH Teys Aust - Beenleigh,JPYOK YOKOHAMA,HEADOF Teys Australia Pty Ltd
CENTENNIAL FOODSERVICE,705800,CAVAN VANCOUVER,BEENLH Teys Aust - Beenleigh,BEENLH Teys Aust - Beenleigh,CAVAN VANCOUVER,HEADOF Teys Australia Pty Ltd
CENTENNIAL FOODSERVICE,705801,CAVAN VANCOUVER,ROCKON Teys Aust - Rockhampton,ROCKON Teys Aust - Rockhampton,CAVAN VANCOUVER,HEADOF Teys Australia Pty Ltd
"SHENZHEN WONDERFUL FOOD CO., LTD",721409,CNYTI YANTIAN,BEENLH Teys Aust - Beenleigh,BEENLH Teys Aust - Beenleigh,CNYTI YANTIAN,HEADOF Teys Australia Pty Ltd
AL WAFI FOOD PRODUCTS FACTORY LLC.,717125,AEAUH ABU DHABI,BEENLH Teys Aust - Beenleigh,BEENLH Teys Aust - Beenleigh,AEAUH ABU DHABI,HEADOF Teys Australia Pty Ltd
"S-FOOD CO., LTD.",705402,KRYIN YONG-IN WAREHOUSE,ROCKON Teys Aust - Rockhampton,ROCKON Teys Aust - Rockhampton,KRYIN YONG-IN WAREHOUSE,HEADOF Teys Australia Pty Ltd
"S-FOOD CO., LTD.",705403,KRYIN YONG-IN WAREHOUSE,BILOEL Teys Aust - Biloela,BILOEL Teys Aust - Biloela,KRYIN YONG-IN WAREHOUSE,HEADOF Teys Australia Pty Ltd
"S-FOOD CO., LTD.",705404,KRYIN YONG-IN WAREHOUSE,LAGOCS Teys Aust - Distribution,LAGSTO Teys at Lago Storage Age,KRYIN YONG-IN WAREHOUSE,HEADOF Teys Australia Pty Ltd
"S-FOOD CO., LTD.",705405,KRYIN YONG-IN WAREHOUSE,NARACT Teys Aust - Naracoorte,NARACT Teys Aust - Naracoorte,KRYIN YONG-IN WAREHOUSE,HEADOF Teys Australia Pty Ltd
"S-FOOD CO., LTD.",705406,KRYIN YONG-IN WAREHOUSE,INNISF Teys Australia Pty Ltd,INNISF Teys Australia Pty Ltd,KRYIN YONG-IN WAREHOUSE,HEADOF Teys Australia Pty Ltd
KAWASHO FOODS CORPORATION,600522,JPYOK YOKOHAMA,ROCKON Teys Aust - Rockhampton,ROCKON Teys Aust - Rockhampton,JPYOK YOKOHAMA,HEADOF Teys Australia Pty Ltd
KAWASHO FOODS CORPORATION,600523,JPYOK YOKOHAMA,LAGOCS Teys Aust - Distribution,LAGSTO Teys at Lago Storage Age,JPYOK YOKOHAMA,HEADOF Teys Australia Pty Ltd
KAWASHO FOODS CORPORATION,600524,JPYOK YOKOHAMA,NARACT Teys Aust - Naracoorte,NARACT Teys Aust - Naracoorte,JPYOK YOKOHAMA,HEADOF Teys Australia Pty Ltd
HEALTH PLUS GENERAL TRADING L.L.C,720156,AEJEA JEBEL ALI,BEENLH Teys Aust - Beenleigh,BEENLH Teys Aust - Beenleigh,AEJEA JEBEL ALI,HEADOF Teys Australia Pty Ltd
HEALTH PLUS GENERAL TRADING L.L.C,720156,AEJEA JEBEL ALI,BILOEL Teys Aust - Biloela,BILOEL Teys Aust - Biloela,AEJEA JEBEL ALI,HEADOF Teys Australia Pty Ltd
"SHINPOH INTERNATIONAL CO.,LTD",712602,JPYOK YOKOHAMA,ROCKON Teys Aust - Rockhampton,ROCKON Teys Aust - Rockhampton,JPYOK YOKOHAMA,HEADOF Teys Australia Pty Ltd
"SHINPOH INTERNATIONAL CO.,LTD",712602,JPYOK YOKOHAMA,LAGOCS Teys Aust - Distribution,LAGSTO Teys at Lago Storage Age,JPYOK YOKOHAMA,HEADOF Teys Australia Pty Ltd
"YOKOHAMA REITO CO., LTD.",703991,JPYOK YOKOHAMA,BEENLH Teys Aust - Beenleigh,BEENLH Teys Aust - Beenleigh,JPYOK YOKOHAMA,HEADOF Teys Australia Pty Ltd
"YOKOHAMA REITO CO., LTD.",703991,JPYOK YOKOHAMA,WAGGAW Teys Aust - Wagga,WAGGAW Teys Aust - Wagga,JPYOK YOKOHAMA,HEADOF Teys Australia Pty Ltd
"YOKOHAMA REITO CO., LTD.",703991,JPYOK YOKOHAMA,ROCKON Teys Aust - Rockhampton,ROCKON Teys Aust - Rockhampton,JPYOK YOKOHAMA,HEADOF Teys Australia Pty Ltd
"YOKOHAMA REITO CO., LTD.",703991,JPYOK YOKOHAMA,BILOEL Teys Aust - Biloela,BILOEL Teys Aust - Biloela,JPYOK YOKOHAMA,HEADOF Teys Australia Pty Ltd
"YOKOHAMA REITO CO., LTD.",703991,JPYOK YOKOHAMA,LAGOCS Teys Aust - Distribution,LAGSTO Teys at Lago Storage Age,JPYOK YOKOHAMA,HEADOF Teys Australia Pty Ltd
"YOKOHAMA REITO CO., LTD.",703991,JPYOK YOKOHAMA,TAMWTH Teys Aust - Tamworth,TAMWTH Teys Aust - Tamworth,JPYOK YOKOHAMA,HEADOF Teys Australia Pty Ltd
"CHANG JUH ENTERPRISE CO., LTD",706144,TWKHH KAOHSIUNG,WAGGAW Teys Aust - Wagga,WAGGAW Teys Aust - Wagga,TWKHH KAOHSIUNG,HEADOF Teys Australia Pty Ltd
"CHANG JUH ENTERPRISE CO., LTD",706144,TWKHH KAOHSIUNG,LAGOCS Teys Aust - Distribution,LAGSTO Teys at Lago Storage Age,TWKHH KAOHSIUNG,HEADOF Teys Australia Pty Ltd
"CHANG JUH ENTERPRISE CO., LTD",706144,TWKHH KAOHSIUNG,BEENLH Teys Aust - Beenleigh,BEENLH Teys Aust - Beenleigh,TWKHH KAOHSIUNG,HEADOF Teys Australia Pty Ltd
"CHANG JUH ENTERPRISE CO., LTD",706144,TWKHH KAOHSIUNG,NARACT Teys Aust - Naracoorte,NARACT Teys Aust - Naracoorte,TWKHH KAOHSIUNG,HEADOF Teys Australia Pty Ltd
JAGOTA BROTHERS TRADING COMPANY LIMITED,711801,THBKK BANGKOK,BILOEL Teys Aust - Biloela,BILOEL Teys Aust - Biloela,THBKK BANGKOK,HEADOF Teys Australia Pty Ltd
JAGOTA BROTHERS TRADING COMPANY LIMITED,711801,THBKK BANGKOK,BEENLH Teys Aust - Beenleigh,BEENLH Teys Aust - Beenleigh,THBKK BANGKOK,HEADOF Teys Australia Pty Ltd
PMI (HONG KONG) FOOD SERVICES LIMITED,700724,HKHKG HONG KONG,LAGOCS Teys Aust - Distribution,LAGSTO Teys at Lago Storage Age,HKHKG HONG KONG,HEADOF Teys Australia Pty Ltd
PMI (HONG KONG) FOOD SERVICES LIMITED,700724,HKHKG HONG KONG,ROCKON Teys Aust - Rockhampton,ROCKON Teys Aust - Rockhampton,HKHKG HONG KONG,HEADOF Teys Australia Pty Ltd
PMI (HONG KONG) FOOD SERVICES LIMITED,700724,HKHKG HONG KONG,BEENLH Teys Aust - Beenleigh,BEENLH Teys Aust - Beenleigh,HKHKG HONG KONG,HEADOF Teys Australia Pty Ltd
PMI (HONG KONG) FOOD SERVICES LIMITED,700724,HKHKG HONG KONG,INNISF Teys Australia Pty Ltd,INNISF Teys Australia Pty Ltd,HKHKG HONG KONG,INNI Teys Australia Pty Ltd
"ROBRAN INTERNATIONAL PTY LTD.,",600507,PGMAG MADANG,WAGGAW Teys Aust - Wagga,WAGGAW Teys Aust - Wagga,PGMAG MADANG,HEADOF Teys Australia Pty Ltd
"ROBRAN INTERNATIONAL PTY LTD.,",600507,PGMAG MADANG,ROCKON Teys Aust - Rockhampton,ROCKON Teys Aust - Rockhampton,PGMAG MADANG,HEADOF Teys Australia Pty Ltd
"CATTLE FARM CO., LTD.",724180,KRGWH GWANGJU WAREHOUSE,ROCKON Teys Aust - Rockhampton,ROCKON Teys Aust - Rockhampton,KRGWH GWANGJU WAREHOUSE,HEADOF Teys Australia Pty Ltd
"CATTLE FARM CO., LTD.",724180,KRYIN YONG-IN WAREHOUSE,BILOEL Teys Aust - Biloela,BILOEL Teys Aust - Biloela,KRYIN YONG-IN WAREHOUSE,HEADOF Teys Australia Pty Ltd
"CATTLE FARM CO., LTD.",724180,KRGWH GWANGJU WAREHOUSE,INNISF Teys Australia Pty Ltd,INNISF Teys Australia Pty Ltd,KRGWH GWANGJU WAREHOUSE,HEADOF Teys Australia Pty Ltd
"CATTLE FARM CO., LTD.",724180,KRYIN YONG-IN WAREHOUSE,TAMWTH Teys Aust - Tamworth,TAMWTH Teys Aust - Tamworth,KRYIN YONG-IN WAREHOUSE,HEADOF Teys Australia Pty Ltd
"CATTLE FARM CO., LTD.",724180,KRGWH GWANGJU WAREHOUSE,NARACT Teys Aust - Naracoorte,NARACT Teys Aust - Naracoorte,KRGWH GWANGJU WAREHOUSE,HEADOF Teys Australia Pty Ltd
TENDER PLUS JAPAN LTD,705569,JPYOK YOKOHAMA,WAGGAW Teys Aust - Wagga,WAGGAW Teys Aust - Wagga,JPYOK YOKOHAMA,HEADOF Teys Australia Pty Ltd
SAMEX AUSTRALIAN MEAT CO PTY LTD,600111,SGSIN SINGAPORE,WAGGAW Teys Aust - Wagga,WAGGAW Teys Aust - Wagga,SGSIN SINGAPORE,HEADOF Teys Australia Pty Ltd
SAMEX AUSTRALIAN MEAT CO PTY LTD,600111,ZADUR DURBAN,NARACT Teys Aust - Naracoorte,NARACT Teys Aust - Naracoorte,ZADUR DURBAN,HEADOF Teys Australia Pty Ltd
SAMEX AUSTRALIAN MEAT CO PTY LTD,600111,MXMXL MEXICALI,BILOEL Teys Aust - Biloela,BILOEL Teys Aust - Biloela,MXMXL MEXICALI,HEADOF Teys Australia Pty Ltd
SAMEX AUSTRALIAN MEAT CO PTY LTD,600111,"IDJKT JAKARTA, JAVA",INNISF Teys Australia Pty Ltd,INNISF Teys Australia Pty Ltd,"IDJKT JAKARTA, JAVA",HEADOF Teys Australia Pty Ltd
SAMEX AUSTRALIAN MEAT CO PTY LTD,600111,MXGDL GUADALAJARA,BEENLH Teys Aust - Beenleigh,BEENLH Teys Aust - Beenleigh,MXGDL GUADALAJARA,HEADOF Teys Australia Pty Ltd
SAMEX AUSTRALIAN MEAT CO PTY LTD,600111,MXTIJ TIJUANA,LAGOCS Teys Aust - Distribution,LAGSTO Teys at Lago Storage Age,MXTIJ TIJUANA,HEADOF Teys Australia Pty Ltd
ORIENTAL PARTNERS LTD,709609,HKHKG HONG KONG,TAMWTH Teys Aust - Tamworth,TAMWTH Teys Aust - Tamworth,HKHKG HONG KONG,HEADOF Teys Australia Pty Ltd
ORIENTAL PARTNERS LTD,709609,HKHKG HONG KONG,BEENLH Teys Aust - Beenleigh,BEENLH Teys Aust - Beenleigh,HKHKG HONG KONG,HEADOF Teys Australia Pty Ltd
ORIENTAL PARTNERS LTD,709609,HKHKG HONG KONG,BILOEL Teys Aust - Biloela,BILOEL Teys Aust - Biloela,HKHKG HONG KONG,HEADOF Teys Australia Pty Ltd
ORIENTAL PARTNERS LTD,709609,HKHKG HONG KONG,NARACT Teys Aust - Naracoorte,NARACT Teys Aust - Naracoorte,HKHKG HONG KONG,HEADOF Teys Australia Pty Ltd
ORIENTAL PARTNERS LTD,709609,HKHKG HONG KONG,ROCKON Teys Aust - Rockhampton,ROCKON Teys Aust - Rockhampton,HKHKG HONG KONG,HEADOF Teys Australia Pty Ltd
ORIENTAL PARTNERS LTD,709609,HKHKG HONG KONG,WAGGAW Teys Aust - Wagga,WAGGAW Teys Aust - Wagga,HKHKG HONG KONG,HEADOF Teys Australia Pty Ltd
WESTBAKE BAKERY LTD,720137,"PGLAE LAE, MOROBE",INNISF Teys Australia Pty Ltd,INNISF Teys Australia Pty Ltd,"PGLAE LAE, MOROBE",HEADOF Teys Australia Pty Ltd
HJ HEINZ COMPANY AUSTRALIA LTD,600240,PGPOM PORT MORESBY,TAMWTH Teys Aust - Tamworth,TAMWTH Teys Aust - Tamworth,PGPOM PORT MORESBY,HEADOF Teys Australia Pty Ltd
HJ HEINZ COMPANY AUSTRALIA LTD,600240,PGPOM PORT MORESBY,WAGGAW Teys Aust - Wagga,WAGGAW Teys Aust - Wagga,PGPOM PORT MORESBY,HEADOF Teys Australia Pty Ltd
KAMAKURA HAM MURAI SHOKAI CO.LTD,705747,JPYOK YOKOHAMA,WAGGAW Teys Aust - Wagga,WAGGAW Teys Aust - Wagga,JPYOK YOKOHAMA,HEADOF Teys Australia Pty Ltd
KAMAKURA HAM MURAI SHOKAI CO.LTD,705747,JPYOK YOKOHAMA,BEENLH Teys Aust - Beenleigh,BEENLH Teys Aust - Beenleigh,JPYOK YOKOHAMA,HEADOF Teys Australia Pty Ltd
PT. DUA PUTRA PERKASA,721753,"IDJKT JAKARTA, JAVA",NARACT Teys Aust - Naracoorte,NARACT Teys Aust - Naracoorte,"IDJKT JAKARTA, JAVA",HEADOF Teys Australia Pty Ltd
PT. DUA PUTRA PERKASA,721753,"IDJKT JAKARTA, JAVA",BEENLH Teys Aust - Beenleigh,BEENLH Teys Aust - Beenleigh,"IDJKT JAKARTA, JAVA",HEADOF Teys Australia Pty Ltd
PT. DUA PUTRA PERKASA,721753,"IDJKT JAKARTA, JAVA",LAGOCS Teys Aust - Distribution,LAGSTO Teys at Lago Storage Age,"IDJKT JAKARTA, JAVA",HEADOF Teys Australia Pty Ltd
MERLOG FOODS PTY LTD,714754,ZACPT CAPE TOWN,LAGOCS Teys Aust - Distribution,LAGSTO Teys at Lago Storage Age,ZACPT CAPE TOWN,HEADOF Teys Australia Pty Ltd
MERLOG FOODS PTY LTD,714754,ZACPT CAPE TOWN,BILOEL Teys Aust - Biloela,BILOEL Teys Aust - Biloela,ZACPT CAPE TOWN,HEADOF Teys Australia Pty Ltd
MERLOG FOODS PTY LTD,714754,ZACPT CAPE TOWN,NARACT Teys Aust - Naracoorte,NARACT Teys Aust - Naracoorte,ZACPT CAPE TOWN,HEADOF Teys Australia Pty Ltd
FU FOONG FOOD CO LTD,701047,TWKEL KEELUNG,ROCKON Teys Aust - Rockhampton,ROCKON Teys Aust - Rockhampton,TWKEL KEELUNG,HEADOF Teys Australia Pty Ltd
KIM FRESH COMPANY LIMITED,721253,VNSGN HO CHI MINH CITY,ROCKON Teys Aust - Rockhampton,ROCKON Teys Aust - Rockhampton,VNSGN HO CHI MINH CITY,HEADOF Teys Australia Pty Ltd
KIM FRESH COMPANY LIMITED,721253,VNSGN HO CHI MINH CITY,LAGOCS Teys Aust - Distribution,LAGSTO Teys at Lago Storage Age,VNSGN HO CHI MINH CITY,HEADOF Teys Australia Pty Ltd
KIM FRESH COMPANY LIMITED,721253,VNSGN HO CHI MINH CITY,NARACT Teys Aust - Naracoorte,NARACT Teys Aust - Naracoorte,VNSGN HO CHI MINH CITY,HEADOF Teys Australia Pty Ltd
LOTTE FOOD,601427,KRBWH BUSAN WAREHOUSE,INNISF Teys Australia Pty Ltd,INNISF Teys Australia Pty Ltd,KRBWH BUSAN WAREHOUSE,HEADOF Teys Australia Pty Ltd
LOTTE FOOD,601427,KRBUS BUSAN,ROCKON Teys Aust - Rockhampton,ROCKON Teys Aust - Rockhampton,KRBUS BUSAN,HEADOF Teys Australia Pty Ltd
LOTTE FOOD,601427,KRBWH BUSAN WAREHOUSE,BEENLH Teys Aust - Beenleigh,BEENLH Teys Aust - Beenleigh,KRBWH BUSAN WAREHOUSE,HEADOF Teys Australia Pty Ltd
LOTTE FOOD,601427,KRBUS BUSAN,WAGGAW Teys Aust - Wagga,WAGGAW Teys Aust - Wagga,KRBUS BUSAN,HEADOF Teys Australia Pty Ltd
LOTTE FOOD,601427,KRBWH BUSAN WAREHOUSE,NARACT Teys Aust - Naracoorte,NARACT Teys Aust - Naracoorte,KRBWH BUSAN WAREHOUSE,HEADOF Teys Australia Pty Ltd
LOTTE FOOD,601427,KRBUS BUSAN,TAMWTH Teys Aust - Tamworth,TAMWTH Teys Aust - Tamworth,KRBUS BUSAN,HEADOF Teys Australia Pty Ltd
LOTTE FOOD,601427,KRBWH BUSAN WAREHOUSE,BILOEL Teys Aust - Biloela,BILOEL Teys Aust - Biloela,KRBWH BUSAN WAREHOUSE,HEADOF Teys Australia Pty Ltd
"PSMEAT CO., LTD",720731,KRYIN YONG-IN WAREHOUSE,WAGGAW Teys Aust - Wagga,WAGGAW Teys Aust - Wagga,KRYIN YONG-IN WAREHOUSE,HEADOF Teys Australia Pty Ltd
"PSMEAT CO., LTD",720731,KRYIN YONG-IN WAREHOUSE,BILOEL Teys Aust - Biloela,BILOEL Teys Aust - Biloela,KRYIN YONG-IN WAREHOUSE,HEADOF Teys Australia Pty Ltd
"PSMEAT CO., LTD",720731,KRYIN YONG-IN WAREHOUSE,TAMWTH Teys Aust - Tamworth,TAMWTH Teys Aust - Tamworth,KRYIN YONG-IN WAREHOUSE,HEADOF Teys Australia Pty Ltd
"JIANGSU GTIG ESEN CO.,LTD",724345,CNZJG ZHANGJIAGANG,ROCKON Teys Aust - Rockhampton,ROCKON Teys Aust - Rockhampton,CNZJG ZHANGJIAGANG,HEADOF Teys Australia Pty Ltd
"JIANGSU GTIG ESEN CO.,LTD",724345,CNZJG ZHANGJIAGANG,BEENLH Teys Aust - Beenleigh,BEENLH Teys Aust - Beenleigh,CNZJG ZHANGJIAGANG,HEADOF Teys Australia Pty Ltd
"JIANGSU GTIG ESEN CO.,LTD",724345,CNZJG ZHANGJIAGANG,BILOEL Teys Aust - Biloela,BILOEL Teys Aust - Biloela,CNZJG ZHANGJIAGANG,HEADOF Teys Australia Pty Ltd
"JIANGSU GTIG ESEN CO.,LTD",724345,CNZJG ZHANGJIAGANG,NARACT Teys Aust - Naracoorte,NARACT Teys Aust - Naracoorte,CNZJG ZHANGJIAGANG,HEADOF Teys Australia Pty Ltd
"JIANGSU GTIG ESEN CO.,LTD",724345,CNZJG ZHANGJIAGANG,WAGGAW Teys Aust - Wagga,WAGGAW Teys Aust - Wagga,CNZJG ZHANGJIAGANG,HEADOF Teys Australia Pty Ltd
"JIANGSU GTIG ESEN CO.,LTD",724345,CNZJG ZHANGJIAGANG,INNISF Teys Australia Pty Ltd,INNISF Teys Australia Pty Ltd,CNZJG ZHANGJIAGANG,HEADOF Teys Australia Pty Ltd
"JIANGSU GTIG ESEN CO.,LTD",724345,CNZJG ZHANGJIAGANG,TAMWTH Teys Aust - Tamworth,TAMWTH Teys Aust - Tamworth,CNZJG ZHANGJIAGANG,HEADOF Teys Australia Pty Ltd
"DALIAN MARUYAMA FOOD CO., LTD",600639,CNDLC DALIAN,ROCKON Teys Aust - Rockhampton,ROCKON Teys Aust - Rockhampton,CNDLC DALIAN,HEADOF Teys Australia Pty Ltd
"DALIAN MARUYAMA FOOD CO., LTD",600639,CNDLC DALIAN,BEENLH Teys Aust - Beenleigh,BEENLH Teys Aust - Beenleigh,CNDLC DALIAN,HEADOF Teys Australia Pty Ltd
PT. ANZINDO GRATIA INTERNATIONAL,715505,"IDJKT JAKARTA, JAVA",INNISF Teys Australia Pty Ltd,INNISF Teys Australia Pty Ltd,"IDJKT JAKARTA, JAVA",HEADOF Teys Australia Pty Ltd
PT. ANZINDO GRATIA INTERNATIONAL,715505,"IDJKT JAKARTA, JAVA",BILOEL Teys Aust - Biloela,BILOEL Teys Aust - Biloela,"IDJKT JAKARTA, JAVA",HEADOF Teys Australia Pty Ltd
PT. ANZINDO GRATIA INTERNATIONAL,715505,"IDJKT JAKARTA, JAVA",LAGOCS Teys Aust - Distribution,LAGSTO Teys at Lago Storage Age,"IDJKT JAKARTA, JAVA",HEADOF Teys Australia Pty Ltd
"MIRASCO, INC.",602057,EGEDK EL DEKHEILA,INNISF Teys Australia Pty Ltd,INNISF Teys Australia Pty Ltd,EGEDK EL DEKHEILA,HEADOF Teys Australia Pty Ltd
"MIRASCO, INC.",602057,EGEDK EL DEKHEILA,BILOEL Teys Aust - Biloela,BILOEL Teys Aust - Biloela,EGEDK EL DEKHEILA,HEADOF Teys Australia Pty Ltd
KAI BO FROZEN MEAT SUPERMARKET,707083,HKHKG HONG KONG,TAMWTH Teys Aust - Tamworth,TAMWTH Teys Aust - Tamworth,HKHKG HONG KONG,HEADOF Teys Australia Pty Ltd
KAI BO FROZEN MEAT SUPERMARKET,707083,HKHKG HONG KONG,INNISF Teys Australia Pty Ltd,INNISF Teys Australia Pty Ltd,HKHKG HONG KONG,HEADOF Teys Australia Pty Ltd
CV. SURYA CEMERLANG ABADI,702951,"IDJKT JAKARTA, JAVA",BEENLH Teys Aust - Beenleigh,BEENLH Teys Aust - Beenleigh,"IDJKT JAKARTA, JAVA",HEADOF Teys Australia Pty Ltd
CV. SURYA CEMERLANG ABADI,702951,"IDJKT JAKARTA, JAVA",LAGOCS Teys Aust - Distribution,LAGSTO Teys at Lago Storage Age,"IDJKT JAKARTA, JAVA",HEADOF Teys Australia Pty Ltd
CV. SURYA CEMERLANG ABADI,702951,"IDJKT JAKARTA, JAVA",NARACT Teys Aust - Naracoorte,NARACT Teys Aust - Naracoorte,"IDJKT JAKARTA, JAVA",HEADOF Teys Australia Pty Ltd
CV. SURYA CEMERLANG ABADI,702951,"IDJKT JAKARTA, JAVA",BILOEL Teys Aust - Biloela,BILOEL Teys Aust - Biloela,"IDJKT JAKARTA, JAVA",HEADOF Teys Australia Pty Ltd
SIDROY CORP. S.A.,703992,BRSUA SUAPE,BEENLH Teys Aust - Beenleigh,BEENLH Teys Aust - Beenleigh,BRSUA SUAPE,HEADOF Teys Australia Pty Ltd
SIDROY CORP. S.A.,703992,BRSUA SUAPE,NARACT Teys Aust - Naracoorte,NARACT Teys Aust - Naracoorte,BRSUA SUAPE,HEADOF Teys Australia Pty Ltd
SIDROY CORP. S.A.,703992,BRSUA SUAPE,WAGGAW Teys Aust - Wagga,WAGGAW Teys Aust - Wagga,BRSUA SUAPE,HEADOF Teys Australia Pty Ltd
"SUNWOO MT CO., LTD.",724182,KRGWH GWANGJU WAREHOUSE,WAGGAW Teys Aust - Wagga,WAGGAW Teys Aust - Wagga,KRGWH GWANGJU WAREHOUSE,HEADOF Teys Australia Pty Ltd
"SUNWOO MT CO., LTD.",724182,KRGWH GWANGJU WAREHOUSE,LAGOCS Teys Aust - Distribution,LAGSTO Teys at Lago Storage Age,KRGWH GWANGJU WAREHOUSE,HEADOF Teys Australia Pty Ltd
"IN YAO CO., LTD",724026,TWKHH KAOHSIUNG,ROCKON Teys Aust - Rockhampton,ROCKON Teys Aust - Rockhampton,TWKHH KAOHSIUNG,HEADOF Teys Australia Pty Ltd
SEVEN SEAS TRADING LIMITED,723761,JPYOK YOKOHAMA,BILOEL Teys Aust - Biloela,BILOEL Teys Aust - Biloela,JPYOK YOKOHAMA,HEADOF Teys Australia Pty Ltd
SEVEN SEAS TRADING LIMITED,723761,JPYOK YOKOHAMA,NARACT Teys Aust - Naracoorte,NARACT Teys Aust - Naracoorte,JPYOK YOKOHAMA,HEADOF Teys Australia Pty Ltd
L N REYNOLDS CO LTD,600031,CATOR TORONTO,BEENLH Teys Aust - Beenleigh,BEENLH Teys Aust - Beenleigh,CATOR TORONTO,HEADOF Teys Australia Pty Ltd
L N REYNOLDS CO LTD,600031,CATOR TORONTO,NARACT Teys Aust - Naracoorte,NARACT Teys Aust - Naracoorte,CATOR TORONTO,HEADOF Teys Australia Pty Ltd
L N REYNOLDS CO LTD,600031,CATOR TORONTO,ROCKON Teys Aust - Rockhampton,ROCKON Teys Aust - Rockhampton,CATOR TORONTO,HEADOF Teys Australia Pty Ltd
TAM THUC INVESTMENT COMPANY LTD,716543,VNCAT CAT LAI,BILOEL Teys Aust - Biloela,BILOEL Teys Aust - Biloela,VNCAT CAT LAI,HEADOF Teys Australia Pty Ltd
PT BINA MENTARI TUNGGAL,705609,"IDJKT JAKARTA, JAVA",BILOEL Teys Aust - Biloela,BILOEL Teys Aust - Biloela,"IDJKT JAKARTA, JAVA",HEADOF Teys Australia Pty Ltd
PT BINA MENTARI TUNGGAL,705609,"IDJKT JAKARTA, JAVA",BEENLH Teys Aust - Beenleigh,BEENLH Teys Aust - Beenleigh,"IDJKT JAKARTA, JAVA",HEADOF Teys Australia Pty Ltd
PT BINA MENTARI TUNGGAL,705609,"IDJKT JAKARTA, JAVA",LAGOCS Teys Aust - Distribution,LAGSTO Teys at Lago Storage Age,"IDJKT JAKARTA, JAVA",HEADOF Teys Australia Pty Ltd
PT BINA MENTARI TUNGGAL,705609,"IDJKT JAKARTA, JAVA",NARACT Teys Aust - Naracoorte,NARACT Teys Aust - Naracoorte,"IDJKT JAKARTA, JAVA",HEADOF Teys Australia Pty Ltd
PT BINA MENTARI TUNGGAL,705609,"IDJKT JAKARTA, JAVA",INNISF Teys Australia Pty Ltd,INNISF Teys Australia Pty Ltd,"IDJKT JAKARTA, JAVA",INNI Teys Australia Pty Ltd
JHAN WANG MEAT CO.LTD,719271,TWTXG TAICHUNG,NARACT Teys Aust - Naracoorte,NARACT Teys Aust - Naracoorte,TWTXG TAICHUNG,HEADOF Teys Australia Pty Ltd
JHAN WANG MEAT CO.LTD,719271,TWTXG TAICHUNG,LAGOCS Teys Aust - Distribution,LAGSTO Teys at Lago Storage Age,TWTXG TAICHUNG,HEADOF Teys Australia Pty Ltd
JHAN WANG MEAT CO.LTD,719271,TWTXG TAICHUNG,ROCKON Teys Aust - Rockhampton,ROCKON Teys Aust - Rockhampton,TWTXG TAICHUNG,HEADOF Teys Australia Pty Ltd
W A MEAT EXPORTS PTY LTD,600571,"IDJKT JAKARTA, JAVA",BEENLH Teys Aust - Beenleigh,BEENLH Teys Aust - Beenleigh,"IDJKT JAKARTA, JAVA",HEADOF Teys Australia Pty Ltd
W A MEAT EXPORTS PTY LTD,600571,"IDJKT JAKARTA, JAVA",LAGOCS Teys Aust - Distribution,LAGSTO Teys at Lago Storage Age,"IDJKT JAKARTA, JAVA",HEADOF Teys Australia Pty Ltd
FOOD AND DRINKS PUBLIC COMPANY LIMITED,600571,THBKK BANGKOK,LAGOCS Teys Aust - Distribution,LAGSTO Teys at Lago Storage Age,THBKK BANGKOK,HEADOF Teys Australia Pty Ltd
EASTERN MEAT SOLUTIONS INC.,703313,CATOR TORONTO,ROCKON Teys Aust - Rockhampton,ROCKON Teys Aust - Rockhampton,CATOR TORONTO,HEADOF Teys Australia Pty Ltd
EASTERN MEAT SOLUTIONS INC.,703313,CATOR TORONTO,LAGOCS Teys Aust - Distribution,LAGSTO Teys at Lago Storage Age,CATOR TORONTO,HEADOF Teys Australia Pty Ltd
EASTERN MEAT SOLUTIONS INC.,703313,CATOR TORONTO,NARACT Teys Aust - Naracoorte,NARACT Teys Aust - Naracoorte,CATOR TORONTO,HEADOF Teys Australia Pty Ltd
EASTERN MEAT SOLUTIONS INC.,703313,CATOR TORONTO,BILOEL Teys Aust - Biloela,BILOEL Teys Aust - Biloela,CATOR TORONTO,HEADOF Teys Australia Pty Ltd
PT INDOGUNA UTAMA,702557,"IDJKT JAKARTA, JAVA",BILOEL Teys Aust - Biloela,BILOEL Teys Aust - Biloela,"IDJKT JAKARTA, JAVA",HEADOF Teys Australia Pty Ltd
PT INDOGUNA UTAMA,702557,"IDJKT JAKARTA, JAVA",NARACT Teys Aust - Naracoorte,NARACT Teys Aust - Naracoorte,"IDJKT JAKARTA, JAVA",HEADOF Teys Australia Pty Ltd
PT INDOGUNA UTAMA,702557,"IDJKT JAKARTA, JAVA",BEENLH Teys Aust - Beenleigh,BEENLH Teys Aust - Beenleigh,"IDJKT JAKARTA, JAVA",HEADOF Teys Australia Pty Ltd
PT INDOGUNA UTAMA,702557,"IDJKT JAKARTA, JAVA",LAGOCS Teys Aust - Distribution,LAGSTO Teys at Lago Storage Age,"IDJKT JAKARTA, JAVA",HEADOF Teys Australia Pty Ltd
RH TRADING LIMITED,712054,AUBNE BRISBANE,BEENLH Teys Aust - Beenleigh,BEENLH Teys Aust - Beenleigh,AUBNE BRISBANE,HEADOF Teys Australia Pty Ltd
"VIETNAM LOTTERIA CO., LTD",703768,VNSGN HO CHI MINH CITY,BEENLH Teys Aust - Beenleigh,BEENLH Teys Aust - Beenleigh,VNSGN HO CHI MINH CITY,HEADOF Teys Australia Pty Ltd
"VIETNAM LOTTERIA CO., LTD",703768,VNSGN HO CHI MINH CITY,ROCKON Teys Aust - Rockhampton,ROCKON Teys Aust - Rockhampton,VNSGN HO CHI MINH CITY,HEADOF Teys Australia Pty Ltd
AJC INTERNATIONAL INC,600128,ZADUR DURBAN,WAGGAW Teys Aust - Wagga,WAGGAW Teys Aust - Wagga,ZADUR DURBAN,HEADOF Teys Australia Pty Ltd
AJC INTERNATIONAL INC,600128,ZADUR DURBAN,NARACT Teys Aust - Naracoorte,NARACT Teys Aust - Naracoorte,ZADUR DURBAN,HEADOF Teys Australia Pty Ltd
PINDORA FOODS PTY LTD,722118,BRIOA ITAPOA,WAGGAW Teys Aust - Wagga,WAGGAW Teys Aust - Wagga,BRIOA ITAPOA,HEADOF Teys Australia Pty Ltd
PT BERKAT MANDIRI PRIMA,703604,"IDJKT JAKARTA, JAVA",INNISF Teys Australia Pty Ltd,INNISF Teys Australia Pty Ltd,"IDJKT JAKARTA, JAVA",HEADOF Teys Australia Pty Ltd
