{
  "name": "Salesforce UAT 2.0",
  "description": "Blank Project",
  "main": "Main.xaml",
  "dependencies": {},
  "excludedData": [
    "Private:*",
    "*password*"
  ],
  "toolVersion": "18.1.1.13",
  "projectVersion": "1.0.6730.22250",
  "packOptions": {},
  "runtimeOptions": {}
}